<?xml version="1.0" encoding="UTF-8"?>
<svg xmlns="http://www.w3.org/2000/svg" xmlns:xlink="http://www.w3.org/1999/xlink" width="360pt" height="288pt" viewBox="0 0 360 288" version="1.1">
<defs>
<g>
<symbol overflow="visible" id="glyph0-0">
<path style="stroke:none;" d=""/>
</symbol>
<symbol overflow="visible" id="glyph0-1">
<path style="stroke:none;" d="M 5.46875 -1.765625 C 5.46875 -2.546875 4.96875 -3.125 4.09375 -3.375 L 2.484375 -3.796875 C 1.71875 -4 1.4375 -4.25 1.4375 -4.75 C 1.4375 -5.40625 2 -5.890625 2.875 -5.890625 C 3.890625 -5.890625 4.46875 -5.421875 4.46875 -4.578125 L 5.25 -4.578125 C 5.25 -5.84375 4.375 -6.578125 2.890625 -6.578125 C 1.484375 -6.578125 0.609375 -5.796875 0.609375 -4.640625 C 0.609375 -3.859375 1.03125 -3.359375 1.875 -3.140625 L 3.46875 -2.71875 C 4.28125 -2.5 4.640625 -2.1875 4.640625 -1.6875 C 4.640625 -0.96875 4.109375 -0.5625 3.015625 -0.5625 C 1.796875 -0.5625 1.203125 -1.171875 1.203125 -2.078125 L 0.421875 -2.078125 C 0.421875 -0.578125 1.4375 0.15625 2.953125 0.15625 C 4.578125 0.15625 5.46875 -0.609375 5.46875 -1.765625 Z M 5.46875 -1.765625 "/>
</symbol>
<symbol overflow="visible" id="glyph0-2">
<path style="stroke:none;" d="M 4.234375 0 L 4.234375 -4.609375 L 3.515625 -4.609375 L 3.515625 -2.0625 C 3.515625 -1.125 3.015625 -0.515625 2.25 -0.515625 C 1.671875 -0.515625 1.296875 -0.859375 1.296875 -1.421875 L 1.296875 -4.609375 L 0.578125 -4.609375 L 0.578125 -1.125 C 0.578125 -0.359375 1.140625 0.125 2.046875 0.125 C 2.71875 0.125 3.15625 -0.109375 3.578125 -0.71875 L 3.578125 0 Z M 4.234375 0 "/>
</symbol>
<symbol overflow="visible" id="glyph0-3">
<path style="stroke:none;" d="M 4.59375 -2.265625 C 4.59375 -3.8125 3.84375 -4.734375 2.625 -4.734375 C 2 -4.734375 1.5 -4.453125 1.15625 -3.921875 L 1.15625 -4.609375 L 0.484375 -4.609375 L 0.484375 1.921875 L 1.21875 1.921875 L 1.21875 -0.546875 C 1.59375 -0.078125 2.03125 0.125 2.625 0.125 C 3.8125 0.125 4.59375 -0.796875 4.59375 -2.265625 Z M 3.828125 -2.28125 C 3.828125 -1.234375 3.296875 -0.546875 2.5 -0.546875 C 1.71875 -0.546875 1.21875 -1.1875 1.21875 -2.265625 C 1.21875 -3.359375 1.71875 -4.0625 2.5 -4.0625 C 3.3125 -4.0625 3.828125 -3.375 3.828125 -2.28125 Z M 3.828125 -2.28125 "/>
</symbol>
<symbol overflow="visible" id="glyph0-4">
<path style="stroke:none;" d="M 1.328125 0 L 1.328125 -6.40625 L 0.59375 -6.40625 L 0.59375 0 Z M 1.328125 0 "/>
</symbol>
<symbol overflow="visible" id="glyph0-5">
<path style="stroke:none;" d="M 1.34375 0 L 1.34375 -4.609375 L 0.609375 -4.609375 L 0.609375 0 Z M 1.4375 -5.296875 L 1.4375 -6.21875 L 0.53125 -6.21875 L 0.53125 -5.296875 Z M 1.4375 -5.296875 "/>
</symbol>
<symbol overflow="visible" id="glyph0-6">
<path style="stroke:none;" d="M 4.515625 -2.09375 C 4.515625 -2.765625 4.453125 -3.1875 4.328125 -3.53125 C 4.03125 -4.28125 3.328125 -4.734375 2.46875 -4.734375 C 1.171875 -4.734375 0.359375 -3.796875 0.359375 -2.28125 C 0.359375 -0.765625 1.15625 0.125 2.453125 0.125 C 3.5 0.125 4.234375 -0.46875 4.421875 -1.40625 L 3.671875 -1.40625 C 3.46875 -0.796875 3.0625 -0.546875 2.46875 -0.546875 C 1.703125 -0.546875 1.140625 -1.03125 1.125 -2.09375 Z M 3.734375 -2.75 C 3.734375 -2.75 3.734375 -2.703125 3.71875 -2.6875 L 1.140625 -2.6875 C 1.203125 -3.515625 1.71875 -4.0625 2.453125 -4.0625 C 3.171875 -4.0625 3.734375 -3.46875 3.734375 -2.75 Z M 3.734375 -2.75 "/>
</symbol>
<symbol overflow="visible" id="glyph0-7">
<path style="stroke:none;" d="M 4.03125 -1.296875 C 4.03125 -1.984375 3.65625 -2.328125 2.734375 -2.546875 L 2.03125 -2.703125 C 1.4375 -2.84375 1.171875 -3.046875 1.171875 -3.375 C 1.171875 -3.796875 1.5625 -4.0625 2.15625 -4.0625 C 2.75 -4.0625 3.0625 -3.8125 3.078125 -3.328125 L 3.859375 -3.328125 C 3.84375 -4.234375 3.25 -4.734375 2.1875 -4.734375 C 1.109375 -4.734375 0.40625 -4.1875 0.40625 -3.328125 C 0.40625 -2.609375 0.78125 -2.265625 1.875 -2 L 2.5625 -1.84375 C 3.0625 -1.71875 3.265625 -1.5625 3.265625 -1.234375 C 3.265625 -0.796875 2.84375 -0.546875 2.203125 -0.546875 C 1.546875 -0.546875 1.171875 -0.703125 1.078125 -1.40625 L 0.296875 -1.40625 C 0.328125 -0.34375 0.9375 0.125 2.140625 0.125 C 3.296875 0.125 4.03125 -0.40625 4.03125 -1.296875 Z M 4.03125 -1.296875 "/>
</symbol>
<symbol overflow="visible" id="glyph0-8">
<path style="stroke:none;" d="M 2.5 -6.40625 L 2.015625 -6.40625 L -0.078125 0.171875 L 0.40625 0.171875 Z M 2.5 -6.40625 "/>
</symbol>
<symbol overflow="visible" id="glyph0-9">
<path style="stroke:none;" d="M 2.828125 -3.96875 L 2.828125 -4.71875 C 2.703125 -4.734375 2.640625 -4.734375 2.546875 -4.734375 C 2.0625 -4.734375 1.703125 -4.453125 1.28125 -3.78125 L 1.28125 -4.609375 L 0.609375 -4.609375 L 0.609375 0 L 1.34375 0 L 1.34375 -2.390625 C 1.34375 -3.4375 1.6875 -3.953125 2.828125 -3.96875 Z M 2.828125 -3.96875 "/>
</symbol>
<symbol overflow="visible" id="glyph0-10">
<path style="stroke:none;" d="M 4.28125 -4.609375 L 3.453125 -4.609375 L 2.140625 -0.875 L 0.921875 -4.609375 L 0.09375 -4.609375 L 1.703125 0 L 2.5 0 Z M 4.28125 -4.609375 "/>
</symbol>
<symbol overflow="visible" id="glyph0-11">
<path style="stroke:none;" d="M 4.203125 -1.578125 L 3.453125 -1.578125 C 3.328125 -0.84375 2.953125 -0.546875 2.328125 -0.546875 C 1.515625 -0.546875 1.03125 -1.171875 1.03125 -2.265625 C 1.03125 -3.40625 1.515625 -4.0625 2.3125 -4.0625 C 2.921875 -4.0625 3.3125 -3.703125 3.40625 -3.0625 L 4.140625 -3.0625 C 4.0625 -4.1875 3.359375 -4.734375 2.328125 -4.734375 C 1.078125 -4.734375 0.265625 -3.796875 0.265625 -2.265625 C 0.265625 -0.78125 1.0625 0.125 2.3125 0.125 C 3.40625 0.125 4.109375 -0.53125 4.203125 -1.578125 Z M 4.203125 -1.578125 "/>
</symbol>
<symbol overflow="visible" id="glyph0-12">
<path style="stroke:none;" d="M 2.234375 0 L 2.234375 -0.609375 C 2.140625 -0.59375 2.015625 -0.578125 1.875 -0.578125 C 1.5625 -0.578125 1.484375 -0.671875 1.484375 -1 L 1.484375 -4.015625 L 2.234375 -4.015625 L 2.234375 -4.609375 L 1.484375 -4.609375 L 1.484375 -5.875 L 0.75 -5.875 L 0.75 -4.609375 L 0.125 -4.609375 L 0.125 -4.015625 L 0.75 -4.015625 L 0.75 -0.671875 C 0.75 -0.203125 1.0625 0.0625 1.640625 0.0625 C 1.8125 0.0625 1.984375 0.046875 2.234375 0 Z M 2.234375 0 "/>
</symbol>
<symbol overflow="visible" id="glyph0-13">
<path style="stroke:none;" d="M 4.703125 -0.015625 L 4.703125 -0.578125 C 4.625 -0.546875 4.59375 -0.546875 4.546875 -0.546875 C 4.296875 -0.546875 4.15625 -0.6875 4.15625 -0.921875 L 4.15625 -3.484375 C 4.15625 -4.296875 3.546875 -4.734375 2.421875 -4.734375 C 1.296875 -4.734375 0.609375 -4.3125 0.578125 -3.25 L 1.3125 -3.25 C 1.375 -3.8125 1.703125 -4.0625 2.390625 -4.0625 C 3.046875 -4.0625 3.421875 -3.8125 3.421875 -3.375 L 3.421875 -3.1875 C 3.421875 -2.875 3.234375 -2.75 2.65625 -2.671875 C 1.625 -2.546875 1.453125 -2.5 1.171875 -2.390625 C 0.640625 -2.171875 0.375 -1.765625 0.375 -1.203125 C 0.375 -0.359375 0.953125 0.125 1.875 0.125 C 2.46875 0.125 3.046875 -0.109375 3.453125 -0.546875 C 3.53125 -0.1875 3.84375 0.0625 4.203125 0.0625 C 4.359375 0.0625 4.46875 0.046875 4.703125 -0.015625 Z M 3.421875 -1.59375 C 3.421875 -0.9375 2.75 -0.515625 2.046875 -0.515625 C 1.46875 -0.515625 1.140625 -0.71875 1.140625 -1.21875 C 1.140625 -1.703125 1.453125 -1.90625 2.25 -2.015625 C 3.015625 -2.125 3.171875 -2.15625 3.421875 -2.28125 Z M 3.421875 -1.59375 "/>
</symbol>
<symbol overflow="visible" id="glyph0-14">
<path style="stroke:none;" d="M 4.546875 -4.015625 L 4.546875 -4.609375 L 3.78125 -4.609375 L 3.78125 -5.328125 C 3.78125 -5.640625 3.953125 -5.796875 4.28125 -5.796875 C 4.34375 -5.796875 4.375 -5.796875 4.546875 -5.78125 L 4.546875 -6.390625 C 4.375 -6.4375 4.28125 -6.4375 4.125 -6.4375 C 3.453125 -6.4375 3.046875 -6.046875 3.046875 -5.390625 L 3.046875 -4.609375 L 1.5 -4.609375 L 1.5 -5.328125 C 1.5 -5.640625 1.6875 -5.796875 2.015625 -5.796875 C 2.078125 -5.796875 2.109375 -5.796875 2.265625 -5.78125 L 2.265625 -6.390625 C 2.109375 -6.4375 2 -6.4375 1.859375 -6.4375 C 1.171875 -6.4375 0.78125 -6.046875 0.78125 -5.390625 L 0.78125 -4.609375 L 0.15625 -4.609375 L 0.15625 -4.015625 L 0.78125 -4.015625 L 0.78125 0 L 1.5 0 L 1.5 -4.015625 L 3.046875 -4.015625 L 3.046875 0 L 3.78125 0 L 3.78125 -4.015625 Z M 4.546875 -4.015625 "/>
</symbol>
<symbol overflow="visible" id="glyph0-15">
<path style="stroke:none;" d="M 5.09375 -5.6875 L 5.09375 -6.40625 L 0.796875 -6.40625 L 0.796875 0 L 1.609375 0 L 1.609375 -2.921875 L 4.671875 -2.921875 L 4.671875 -3.640625 L 1.609375 -3.640625 L 1.609375 -5.6875 Z M 5.09375 -5.6875 "/>
</symbol>
<symbol overflow="visible" id="glyph0-16">
<path style="stroke:none;" d="M 5.21875 -5.6875 L 5.21875 -6.40625 L 0.1875 -6.40625 L 0.1875 -5.6875 L 2.296875 -5.6875 L 2.296875 0 L 3.109375 0 L 3.109375 -5.6875 Z M 5.21875 -5.6875 "/>
</symbol>
<symbol overflow="visible" id="glyph0-17">
<path style="stroke:none;" d=""/>
</symbol>
<symbol overflow="visible" id="glyph0-18">
<path style="stroke:none;" d="M 5.75 0 L 3.5 -6.40625 L 2.4375 -6.40625 L 0.15625 0 L 1.015625 0 L 1.703125 -1.921875 L 4.171875 -1.921875 L 4.828125 0 Z M 3.9375 -2.609375 L 1.90625 -2.609375 L 2.953125 -5.53125 Z M 3.9375 -2.609375 "/>
</symbol>
<symbol overflow="visible" id="glyph0-19">
<path style="stroke:none;" d="M 4.359375 0 L 4.359375 -6.40625 L 3.625 -6.40625 L 3.625 -4.03125 C 3.3125 -4.5 2.828125 -4.734375 2.203125 -4.734375 C 1.015625 -4.734375 0.234375 -3.8125 0.234375 -2.34375 C 0.234375 -0.796875 1 0.125 2.234375 0.125 C 2.875 0.125 3.3125 -0.109375 3.703125 -0.671875 L 3.703125 0 Z M 3.625 -2.28125 C 3.625 -1.21875 3.109375 -0.546875 2.34375 -0.546875 C 1.53125 -0.546875 1 -1.234375 1 -2.3125 C 1 -3.375 1.53125 -4.0625 2.328125 -4.0625 C 3.125 -4.0625 3.625 -3.359375 3.625 -2.28125 Z M 3.625 -2.28125 "/>
</symbol>
<symbol overflow="visible" id="glyph0-20">
<path style="stroke:none;" d="M 1.6875 0 L 1.6875 -0.921875 L 0.765625 -0.921875 L 0.765625 0 Z M 1.6875 0 "/>
</symbol>
<symbol overflow="visible" id="glyph0-21">
<path style="stroke:none;" d="M 6.234375 0 L 6.234375 -3.390625 L 3.5625 -3.390625 L 3.5625 -2.671875 L 5.515625 -2.671875 L 5.515625 -2.484375 C 5.515625 -1.34375 4.671875 -0.5625 3.5 -0.5625 C 2.046875 -0.5625 1.203125 -1.625 1.203125 -3.1875 C 1.203125 -4.765625 2.109375 -5.84375 3.453125 -5.84375 C 4.4375 -5.84375 5.140625 -5.296875 5.3125 -4.46875 L 6.15625 -4.46875 C 5.921875 -5.765625 4.9375 -6.578125 3.46875 -6.578125 C 1.5 -6.578125 0.390625 -5.0625 0.390625 -3.140625 C 0.390625 -1.171875 1.59375 0.15625 3.328125 0.15625 C 4.203125 0.15625 4.890625 -0.15625 5.515625 -0.84375 L 5.71875 0 Z M 6.234375 0 "/>
</symbol>
<symbol overflow="visible" id="glyph0-22">
<path style="stroke:none;" d="M 4.203125 -4.609375 L 3.40625 -4.609375 L 2.140625 -1.015625 L 0.953125 -4.609375 L 0.171875 -4.609375 L 1.734375 0.015625 L 1.453125 0.75 C 1.328125 1.078125 1.171875 1.203125 0.859375 1.203125 C 0.75 1.203125 0.640625 1.171875 0.46875 1.140625 L 0.46875 1.796875 C 0.625 1.875 0.78125 1.921875 0.96875 1.921875 C 1.484375 1.921875 1.90625 1.625 2.15625 0.96875 Z M 4.203125 -4.609375 "/>
</symbol>
<symbol overflow="visible" id="glyph0-23">
<path style="stroke:none;" d="M 4.453125 -3 C 4.453125 -5.15625 3.78125 -6.234375 2.421875 -6.234375 C 1.078125 -6.234375 0.375 -5.140625 0.375 -3.046875 C 0.375 -0.953125 1.078125 0.125 2.421875 0.125 C 3.734375 0.125 4.453125 -0.953125 4.453125 -3 Z M 3.671875 -3.0625 C 3.671875 -1.296875 3.265625 -0.515625 2.40625 -0.515625 C 1.578125 -0.515625 1.171875 -1.34375 1.171875 -3.046875 C 1.171875 -4.75 1.578125 -5.546875 2.421875 -5.546875 C 3.25 -5.546875 3.671875 -4.734375 3.671875 -3.0625 Z M 3.671875 -3.0625 "/>
</symbol>
<symbol overflow="visible" id="glyph0-24">
<path style="stroke:none;" d="M 4.546875 -1.90625 L 4.546875 -2.5 L 2.875 -2.5 L 2.875 -4.171875 L 2.265625 -4.171875 L 2.265625 -2.5 L 0.59375 -2.5 L 0.59375 -1.90625 L 2.265625 -1.90625 L 2.265625 -0.234375 L 2.875 -0.234375 L 2.875 -1.90625 Z M 4.546875 -1.90625 "/>
</symbol>
<symbol overflow="visible" id="glyph0-25">
<path style="stroke:none;" d="M 3.046875 0 L 3.046875 -6.234375 L 2.546875 -6.234375 C 2.265625 -5.28125 2.09375 -5.140625 0.890625 -5 L 0.890625 -4.4375 L 2.28125 -4.4375 L 2.28125 0 Z M 3.046875 0 "/>
</symbol>
<symbol overflow="visible" id="glyph0-26">
<path style="stroke:none;" d="M 4.515625 -1.9375 C 4.515625 -3.09375 3.71875 -3.875 2.609375 -3.875 C 1.984375 -3.875 1.5 -3.640625 1.171875 -3.1875 C 1.171875 -4.703125 1.671875 -5.546875 2.5625 -5.546875 C 3.109375 -5.546875 3.484375 -5.203125 3.609375 -4.609375 L 4.375 -4.609375 C 4.234375 -5.625 3.5625 -6.234375 2.609375 -6.234375 C 1.15625 -6.234375 0.375 -5.015625 0.375 -2.84375 C 0.375 -0.890625 1.046875 0.125 2.46875 0.125 C 3.65625 0.125 4.515625 -0.71875 4.515625 -1.9375 Z M 3.71875 -1.875 C 3.71875 -1.09375 3.1875 -0.546875 2.484375 -0.546875 C 1.765625 -0.546875 1.21875 -1.125 1.21875 -1.921875 C 1.21875 -2.6875 1.734375 -3.1875 2.5 -3.1875 C 3.25 -3.1875 3.71875 -2.703125 3.71875 -1.875 Z M 3.71875 -1.875 "/>
</symbol>
<symbol overflow="visible" id="glyph0-27">
<path style="stroke:none;" d="M 4.5 -4.40625 C 4.5 -5.46875 3.671875 -6.234375 2.5 -6.234375 C 1.21875 -6.234375 0.484375 -5.59375 0.4375 -4.078125 L 1.21875 -4.078125 C 1.28125 -5.125 1.703125 -5.5625 2.46875 -5.5625 C 3.171875 -5.5625 3.703125 -5.0625 3.703125 -4.390625 C 3.703125 -3.890625 3.40625 -3.46875 2.859375 -3.15625 L 2.046875 -2.703125 C 0.75 -1.96875 0.375 -1.375 0.296875 0 L 4.453125 0 L 4.453125 -0.765625 L 1.171875 -0.765625 C 1.25 -1.28125 1.53125 -1.59375 2.296875 -2.046875 L 3.171875 -2.53125 C 4.046875 -2.984375 4.5 -3.640625 4.5 -4.40625 Z M 4.5 -4.40625 "/>
</symbol>
<symbol overflow="visible" id="glyph0-28">
<path style="stroke:none;" d="M 4.453125 -1.8125 C 4.453125 -2.5625 4.140625 -3.015625 3.390625 -3.265625 C 3.96875 -3.5 4.265625 -3.890625 4.265625 -4.515625 C 4.265625 -5.59375 3.546875 -6.234375 2.359375 -6.234375 C 1.109375 -6.234375 0.4375 -5.546875 0.40625 -4.21875 L 1.1875 -4.21875 C 1.203125 -5.140625 1.578125 -5.5625 2.375 -5.5625 C 3.0625 -5.5625 3.46875 -5.15625 3.46875 -4.5 C 3.46875 -3.828125 3.1875 -3.546875 1.9375 -3.546875 L 1.9375 -2.90625 L 2.359375 -2.90625 C 3.21875 -2.90625 3.65625 -2.5 3.65625 -1.796875 C 3.65625 -1.015625 3.171875 -0.546875 2.359375 -0.546875 C 1.515625 -0.546875 1.109375 -0.96875 1.0625 -1.875 L 0.28125 -1.875 C 0.375 -0.5 1.0625 0.125 2.34375 0.125 C 3.625 0.125 4.453125 -0.640625 4.453125 -1.8125 Z M 4.453125 -1.8125 "/>
</symbol>
<symbol overflow="visible" id="glyph0-29">
<path style="stroke:none;" d="M 5.953125 -2.34375 L 5.109375 -2.34375 C 4.921875 -1.125 4.40625 -0.5625 3.328125 -0.5625 C 2.046875 -0.5625 1.234375 -1.546875 1.234375 -3.140625 C 1.234375 -4.78125 2.015625 -5.84375 3.25 -5.84375 C 4.25 -5.84375 4.78125 -5.40625 4.984375 -4.421875 L 5.828125 -4.421875 C 5.5625 -5.828125 4.765625 -6.578125 3.359375 -6.578125 C 1.40625 -6.578125 0.421875 -5 0.421875 -3.125 C 0.421875 -1.265625 1.4375 0.15625 3.3125 0.15625 C 4.875 0.15625 5.765625 -0.671875 5.953125 -2.34375 Z M 5.953125 -2.34375 "/>
</symbol>
<symbol overflow="visible" id="glyph0-30">
<path style="stroke:none;" d="M 4.484375 -2.265625 C 4.484375 -3.859375 3.71875 -4.734375 2.390625 -4.734375 C 1.09375 -4.734375 0.3125 -3.859375 0.3125 -2.3125 C 0.3125 -0.75 1.09375 0.125 2.40625 0.125 C 3.6875 0.125 4.484375 -0.75 4.484375 -2.265625 Z M 3.71875 -2.28125 C 3.71875 -1.203125 3.203125 -0.546875 2.40625 -0.546875 C 1.578125 -0.546875 1.078125 -1.1875 1.078125 -2.3125 C 1.078125 -3.40625 1.578125 -4.0625 2.40625 -4.0625 C 3.234375 -4.0625 3.71875 -3.421875 3.71875 -2.28125 Z M 3.71875 -2.28125 "/>
</symbol>
<symbol overflow="visible" id="glyph0-31">
<path style="stroke:none;" d="M 6.6875 0 L 6.6875 -3.453125 C 6.6875 -4.28125 6.234375 -4.734375 5.359375 -4.734375 C 4.75 -4.734375 4.375 -4.5625 3.953125 -4.03125 C 3.671875 -4.53125 3.3125 -4.734375 2.703125 -4.734375 C 2.09375 -4.734375 1.6875 -4.515625 1.296875 -3.953125 L 1.296875 -4.609375 L 0.625 -4.609375 L 0.625 0 L 1.359375 0 L 1.359375 -2.890625 C 1.359375 -3.5625 1.84375 -4.09375 2.4375 -4.09375 C 2.984375 -4.09375 3.296875 -3.765625 3.296875 -3.171875 L 3.296875 0 L 4.015625 0 L 4.015625 -2.890625 C 4.015625 -3.5625 4.515625 -4.09375 5.109375 -4.09375 C 5.640625 -4.09375 5.953125 -3.75 5.953125 -3.171875 L 5.953125 0 Z M 6.6875 0 "/>
</symbol>
<symbol overflow="visible" id="glyph0-32">
<path style="stroke:none;" d="M 4.28125 0 L 4.28125 -3.484375 C 4.28125 -4.25 3.71875 -4.734375 2.828125 -4.734375 C 2.140625 -4.734375 1.703125 -4.484375 1.296875 -3.828125 L 1.296875 -4.609375 L 0.609375 -4.609375 L 0.609375 0 L 1.34375 0 L 1.34375 -2.546875 C 1.34375 -3.484375 1.859375 -4.09375 2.609375 -4.09375 C 3.1875 -4.09375 3.546875 -3.75 3.546875 -3.1875 L 3.546875 0 Z M 4.28125 0 "/>
</symbol>
<symbol overflow="visible" id="glyph0-33">
<path style="stroke:none;" d="M 5.96875 0 L 5.96875 -0.203125 C 5.671875 -0.40625 5.59375 -0.640625 5.59375 -1.5 C 5.5625 -2.546875 5.40625 -2.875 4.71875 -3.171875 C 5.4375 -3.515625 5.734375 -3.96875 5.734375 -4.703125 C 5.734375 -5.8125 5.03125 -6.40625 3.78125 -6.40625 L 0.8125 -6.40625 L 0.8125 0 L 1.640625 0 L 1.640625 -2.765625 L 3.75 -2.765625 C 4.46875 -2.765625 4.8125 -2.40625 4.796875 -1.625 L 4.796875 -1.046875 C 4.78125 -0.65625 4.859375 -0.265625 4.984375 0 Z M 4.875 -4.578125 C 4.875 -3.828125 4.484375 -3.484375 3.609375 -3.484375 L 1.640625 -3.484375 L 1.640625 -5.6875 L 3.609375 -5.6875 C 4.53125 -5.6875 4.875 -5.296875 4.875 -4.578125 Z M 4.875 -4.578125 "/>
</symbol>
<symbol overflow="visible" id="glyph0-34">
<path style="stroke:none;" d="M 4.296875 -0.75 L 4.296875 -4.609375 L 3.625 -4.609375 L 3.625 -3.9375 C 3.25 -4.484375 2.8125 -4.734375 2.21875 -4.734375 C 1.046875 -4.734375 0.25 -3.75 0.25 -2.265625 C 0.25 -0.8125 1.078125 0.125 2.15625 0.125 C 2.734375 0.125 3.140625 -0.109375 3.625 -0.6875 L 3.625 -0.390625 C 3.625 0.828125 3.125 1.296875 2.265625 1.296875 C 1.6875 1.296875 1.234375 1.09375 1.15625 0.53125 L 0.40625 0.53125 C 0.484375 1.40625 1.15625 1.921875 2.25 1.921875 C 3.6875 1.921875 4.296875 1.28125 4.296875 -0.75 Z M 3.546875 -2.28125 C 3.546875 -1.171875 3.078125 -0.546875 2.3125 -0.546875 C 1.5 -0.546875 1.015625 -1.1875 1.015625 -2.3125 C 1.015625 -3.40625 1.515625 -4.0625 2.296875 -4.0625 C 3.09375 -4.0625 3.546875 -3.390625 3.546875 -2.28125 Z M 3.546875 -2.28125 "/>
</symbol>
<symbol overflow="visible" id="glyph1-0">
<path style="stroke:none;" d=""/>
</symbol>
<symbol overflow="visible" id="glyph1-1">
<path style="stroke:none;" d="M 7.1875 0 L 4.359375 -8.015625 L 3.046875 -8.015625 L 0.1875 0 L 1.28125 0 L 2.125 -2.40625 L 5.21875 -2.40625 L 6.03125 0 Z M 4.921875 -3.265625 L 2.375 -3.265625 L 3.703125 -6.921875 Z M 4.921875 -3.265625 "/>
</symbol>
<symbol overflow="visible" id="glyph1-2">
<path style="stroke:none;" d="M 8.359375 0 L 8.359375 -4.328125 C 8.359375 -5.359375 7.78125 -5.921875 6.703125 -5.921875 C 5.9375 -5.921875 5.484375 -5.703125 4.9375 -5.046875 C 4.59375 -5.671875 4.140625 -5.921875 3.390625 -5.921875 C 2.625 -5.921875 2.109375 -5.640625 1.609375 -4.953125 L 1.609375 -5.765625 L 0.78125 -5.765625 L 0.78125 0 L 1.6875 0 L 1.6875 -3.625 C 1.6875 -4.453125 2.296875 -5.125 3.046875 -5.125 C 3.734375 -5.125 4.109375 -4.703125 4.109375 -3.96875 L 4.109375 0 L 5.03125 0 L 5.03125 -3.625 C 5.03125 -4.453125 5.640625 -5.125 6.390625 -5.125 C 7.0625 -5.125 7.453125 -4.703125 7.453125 -3.96875 L 7.453125 0 Z M 8.359375 0 "/>
</symbol>
<symbol overflow="visible" id="glyph1-3">
<path style="stroke:none;" d="M 5.609375 -2.84375 C 5.609375 -4.828125 4.65625 -5.921875 2.984375 -5.921875 C 1.375 -5.921875 0.390625 -4.8125 0.390625 -2.875 C 0.390625 -0.953125 1.359375 0.171875 3 0.171875 C 4.625 0.171875 5.609375 -0.953125 5.609375 -2.84375 Z M 4.65625 -2.84375 C 4.65625 -1.5 4.015625 -0.6875 3 -0.6875 C 1.984375 -0.6875 1.359375 -1.484375 1.359375 -2.875 C 1.359375 -4.265625 1.984375 -5.078125 3 -5.078125 C 4.03125 -5.078125 4.65625 -4.28125 4.65625 -2.84375 Z M 4.65625 -2.84375 "/>
</symbol>
<symbol overflow="visible" id="glyph1-4">
<path style="stroke:none;" d="M 5.296875 0 L 5.296875 -5.765625 L 4.390625 -5.765625 L 4.390625 -2.578125 C 4.390625 -1.40625 3.765625 -0.640625 2.8125 -0.640625 C 2.09375 -0.640625 1.625 -1.078125 1.625 -1.765625 L 1.625 -5.765625 L 0.71875 -5.765625 L 0.71875 -1.40625 C 0.71875 -0.453125 1.4375 0.171875 2.546875 0.171875 C 3.40625 0.171875 3.9375 -0.125 4.484375 -0.890625 L 4.484375 0 Z M 5.296875 0 "/>
</symbol>
<symbol overflow="visible" id="glyph1-5">
<path style="stroke:none;" d="M 5.359375 0 L 5.359375 -4.359375 C 5.359375 -5.3125 4.640625 -5.921875 3.53125 -5.921875 C 2.671875 -5.921875 2.125 -5.59375 1.609375 -4.796875 L 1.609375 -5.765625 L 0.765625 -5.765625 L 0.765625 0 L 1.6875 0 L 1.6875 -3.171875 C 1.6875 -4.359375 2.328125 -5.125 3.25 -5.125 C 3.984375 -5.125 4.4375 -4.6875 4.4375 -4 L 4.4375 0 Z M 5.359375 0 "/>
</symbol>
<symbol overflow="visible" id="glyph1-6">
<path style="stroke:none;" d="M 2.796875 0 L 2.796875 -0.765625 C 2.671875 -0.734375 2.53125 -0.71875 2.359375 -0.71875 C 1.953125 -0.71875 1.84375 -0.84375 1.84375 -1.25 L 1.84375 -5.015625 L 2.796875 -5.015625 L 2.796875 -5.765625 L 1.84375 -5.765625 L 1.84375 -7.34375 L 0.9375 -7.34375 L 0.9375 -5.765625 L 0.15625 -5.765625 L 0.15625 -5.015625 L 0.9375 -5.015625 L 0.9375 -0.84375 C 0.9375 -0.25 1.328125 0.078125 2.046875 0.078125 C 2.265625 0.078125 2.484375 0.0625 2.796875 0 Z M 2.796875 0 "/>
</symbol>
<symbol overflow="visible" id="glyph1-7">
<path style="stroke:none;" d="M 6.859375 -2.28125 C 6.859375 -3.25 6.40625 -3.84375 5.390625 -4.234375 C 6.109375 -4.578125 6.5 -5.171875 6.5 -5.984375 C 6.5 -7.15625 5.640625 -8.015625 4.125 -8.015625 L 0.875 -8.015625 L 0.875 0 L 4.484375 0 C 5.921875 0 6.859375 -0.96875 6.859375 -2.28125 Z M 5.484375 -5.84375 C 5.484375 -5.03125 5 -4.5625 3.875 -4.5625 L 1.890625 -4.5625 L 1.890625 -7.109375 L 3.875 -7.109375 C 5 -7.109375 5.484375 -6.65625 5.484375 -5.84375 Z M 5.828125 -2.28125 C 5.828125 -1.5 5.359375 -0.90625 4.390625 -0.90625 L 1.890625 -0.90625 L 1.890625 -3.65625 L 4.390625 -3.65625 C 5.359375 -3.65625 5.828125 -3.0625 5.828125 -2.28125 Z M 5.828125 -2.28125 "/>
</symbol>
<symbol overflow="visible" id="glyph1-8">
<path style="stroke:none;" d="M 5.4375 0 L 5.4375 -8.015625 L 4.53125 -8.015625 L 4.53125 -5.03125 C 4.140625 -5.625 3.53125 -5.921875 2.765625 -5.921875 C 1.265625 -5.921875 0.28125 -4.78125 0.28125 -2.9375 C 0.28125 -0.984375 1.25 0.171875 2.796875 0.171875 C 3.59375 0.171875 4.140625 -0.125 4.625 -0.84375 L 4.625 0 Z M 4.53125 -2.859375 C 4.53125 -1.53125 3.890625 -0.6875 2.921875 -0.6875 C 1.90625 -0.6875 1.25 -1.546875 1.25 -2.875 C 1.25 -4.21875 1.90625 -5.078125 2.921875 -5.078125 C 3.90625 -5.078125 4.53125 -4.1875 4.53125 -2.859375 Z M 4.53125 -2.859375 "/>
</symbol>
<symbol overflow="visible" id="glyph1-9">
<path style="stroke:none;" d="M 5.375 -0.953125 L 5.375 -5.765625 L 4.53125 -5.765625 L 4.53125 -4.921875 C 4.0625 -5.609375 3.515625 -5.921875 2.765625 -5.921875 C 1.3125 -5.921875 0.3125 -4.703125 0.3125 -2.828125 C 0.3125 -1.015625 1.34375 0.171875 2.6875 0.171875 C 3.421875 0.171875 3.921875 -0.140625 4.53125 -0.875 L 4.53125 -0.484375 C 4.53125 1.046875 3.90625 1.625 2.84375 1.625 C 2.109375 1.625 1.546875 1.359375 1.4375 0.65625 L 0.5 0.65625 C 0.609375 1.75 1.453125 2.390625 2.8125 2.390625 C 4.609375 2.390625 5.375 1.59375 5.375 -0.953125 Z M 4.4375 -2.84375 C 4.4375 -1.46875 3.84375 -0.6875 2.875 -0.6875 C 1.875 -0.6875 1.28125 -1.484375 1.28125 -2.875 C 1.28125 -4.265625 1.890625 -5.078125 2.875 -5.078125 C 3.859375 -5.078125 4.4375 -4.25 4.4375 -2.84375 Z M 4.4375 -2.84375 "/>
</symbol>
<symbol overflow="visible" id="glyph1-10">
<path style="stroke:none;" d="M 5.640625 -2.625 C 5.640625 -3.453125 5.578125 -3.984375 5.40625 -4.40625 C 5.03125 -5.359375 4.15625 -5.921875 3.078125 -5.921875 C 1.46875 -5.921875 0.4375 -4.734375 0.4375 -2.84375 C 0.4375 -0.953125 1.4375 0.171875 3.0625 0.171875 C 4.375 0.171875 5.296875 -0.578125 5.515625 -1.75 L 4.59375 -1.75 C 4.34375 -0.984375 3.828125 -0.6875 3.09375 -0.6875 C 2.140625 -0.6875 1.421875 -1.296875 1.390625 -2.625 Z M 4.65625 -3.4375 C 4.65625 -3.4375 4.65625 -3.390625 4.65625 -3.359375 L 1.421875 -3.359375 C 1.5 -4.390625 2.140625 -5.078125 3.0625 -5.078125 C 3.96875 -5.078125 4.65625 -4.328125 4.65625 -3.4375 Z M 4.65625 -3.4375 "/>
</symbol>
<symbol overflow="visible" id="glyph2-0">
<path style="stroke:none;" d=""/>
</symbol>
<symbol overflow="visible" id="glyph2-1">
<path style="stroke:none;" d="M -2.921875 -7.453125 L -2.921875 -6.390625 C -1.40625 -6.15625 -0.703125 -5.515625 -0.703125 -4.15625 C -0.703125 -2.5625 -1.921875 -1.546875 -3.921875 -1.546875 C -5.984375 -1.546875 -7.3125 -2.515625 -7.3125 -4.0625 C -7.3125 -5.328125 -6.75 -5.984375 -5.53125 -6.234375 L -5.53125 -7.28125 C -7.296875 -6.96875 -8.21875 -5.953125 -8.21875 -4.1875 C -8.21875 -1.765625 -6.265625 -0.53125 -3.921875 -0.53125 C -1.578125 -0.53125 0.203125 -1.796875 0.203125 -4.140625 C 0.203125 -6.109375 -0.84375 -7.203125 -2.921875 -7.453125 Z M -2.921875 -7.453125 "/>
</symbol>
<symbol overflow="visible" id="glyph2-2">
<path style="stroke:none;" d="M -0.015625 -5.890625 L -0.71875 -5.890625 C -0.6875 -5.78125 -0.6875 -5.734375 -0.6875 -5.6875 C -0.6875 -5.375 -0.859375 -5.1875 -1.140625 -5.1875 L -4.359375 -5.1875 C -5.375 -5.1875 -5.921875 -4.4375 -5.921875 -3.03125 C -5.921875 -1.625 -5.390625 -0.765625 -4.0625 -0.71875 L -4.0625 -1.640625 C -4.765625 -1.71875 -5.078125 -2.140625 -5.078125 -2.984375 C -5.078125 -3.8125 -4.78125 -4.28125 -4.21875 -4.28125 L -3.984375 -4.28125 C -3.59375 -4.28125 -3.4375 -4.046875 -3.34375 -3.328125 C -3.171875 -2.03125 -3.140625 -1.828125 -2.984375 -1.46875 C -2.71875 -0.796875 -2.203125 -0.46875 -1.5 -0.46875 C -0.453125 -0.46875 0.171875 -1.1875 0.171875 -2.359375 C 0.171875 -3.09375 -0.140625 -3.8125 -0.6875 -4.3125 C -0.234375 -4.40625 0.078125 -4.8125 0.078125 -5.265625 C 0.078125 -5.4375 0.0625 -5.59375 -0.015625 -5.890625 Z M -1.984375 -4.28125 C -1.171875 -4.28125 -0.640625 -3.4375 -0.640625 -2.546875 C -0.640625 -1.84375 -0.890625 -1.421875 -1.515625 -1.421875 C -2.125 -1.421875 -2.390625 -1.828125 -2.53125 -2.8125 C -2.65625 -3.765625 -2.703125 -3.96875 -2.84375 -4.28125 Z M -1.984375 -4.28125 "/>
</symbol>
<symbol overflow="visible" id="glyph2-3">
<path style="stroke:none;" d="M 0 -2.796875 L -0.765625 -2.796875 C -0.734375 -2.671875 -0.71875 -2.53125 -0.71875 -2.359375 C -0.71875 -1.953125 -0.84375 -1.84375 -1.25 -1.84375 L -5.015625 -1.84375 L -5.015625 -2.796875 L -5.765625 -2.796875 L -5.765625 -1.84375 L -7.34375 -1.84375 L -7.34375 -0.9375 L -5.765625 -0.9375 L -5.765625 -0.15625 L -5.015625 -0.15625 L -5.015625 -0.9375 L -0.84375 -0.9375 C -0.25 -0.9375 0.078125 -1.328125 0.078125 -2.046875 C 0.078125 -2.265625 0.0625 -2.484375 0 -2.796875 Z M 0 -2.796875 "/>
</symbol>
<symbol overflow="visible" id="glyph2-4">
<path style="stroke:none;" d="M -2.625 -5.640625 C -3.453125 -5.640625 -3.984375 -5.578125 -4.40625 -5.40625 C -5.359375 -5.03125 -5.921875 -4.15625 -5.921875 -3.078125 C -5.921875 -1.46875 -4.734375 -0.4375 -2.84375 -0.4375 C -0.953125 -0.4375 0.171875 -1.4375 0.171875 -3.0625 C 0.171875 -4.375 -0.578125 -5.296875 -1.75 -5.515625 L -1.75 -4.59375 C -0.984375 -4.34375 -0.6875 -3.828125 -0.6875 -3.09375 C -0.6875 -2.140625 -1.296875 -1.421875 -2.625 -1.390625 Z M -3.4375 -4.65625 C -3.4375 -4.65625 -3.390625 -4.65625 -3.359375 -4.65625 L -3.359375 -1.421875 C -4.390625 -1.5 -5.078125 -2.140625 -5.078125 -3.0625 C -5.078125 -3.96875 -4.328125 -4.65625 -3.4375 -4.65625 Z M -3.4375 -4.65625 "/>
</symbol>
<symbol overflow="visible" id="glyph2-5">
<path style="stroke:none;" d="M -0.953125 -5.375 L -5.765625 -5.375 L -5.765625 -4.53125 L -4.921875 -4.53125 C -5.609375 -4.0625 -5.921875 -3.515625 -5.921875 -2.765625 C -5.921875 -1.3125 -4.703125 -0.3125 -2.828125 -0.3125 C -1.015625 -0.3125 0.171875 -1.34375 0.171875 -2.6875 C 0.171875 -3.421875 -0.140625 -3.921875 -0.875 -4.53125 L -0.484375 -4.53125 C 1.046875 -4.53125 1.625 -3.90625 1.625 -2.84375 C 1.625 -2.109375 1.359375 -1.546875 0.65625 -1.4375 L 0.65625 -0.5 C 1.75 -0.609375 2.390625 -1.453125 2.390625 -2.8125 C 2.390625 -4.609375 1.59375 -5.375 -0.953125 -5.375 Z M -2.84375 -4.4375 C -1.46875 -4.4375 -0.6875 -3.84375 -0.6875 -2.875 C -0.6875 -1.875 -1.484375 -1.28125 -2.875 -1.28125 C -4.265625 -1.28125 -5.078125 -1.890625 -5.078125 -2.875 C -5.078125 -3.859375 -4.25 -4.4375 -2.84375 -4.4375 Z M -2.84375 -4.4375 "/>
</symbol>
<symbol overflow="visible" id="glyph2-6">
<path style="stroke:none;" d="M -2.84375 -5.609375 C -4.828125 -5.609375 -5.921875 -4.65625 -5.921875 -2.984375 C -5.921875 -1.375 -4.8125 -0.390625 -2.875 -0.390625 C -0.953125 -0.390625 0.171875 -1.359375 0.171875 -3 C 0.171875 -4.625 -0.953125 -5.609375 -2.84375 -5.609375 Z M -2.84375 -4.65625 C -1.5 -4.65625 -0.6875 -4.015625 -0.6875 -3 C -0.6875 -1.984375 -1.484375 -1.359375 -2.875 -1.359375 C -4.265625 -1.359375 -5.078125 -1.984375 -5.078125 -3 C -5.078125 -4.03125 -4.28125 -4.65625 -2.84375 -4.65625 Z M -2.84375 -4.65625 "/>
</symbol>
<symbol overflow="visible" id="glyph2-7">
<path style="stroke:none;" d="M -4.96875 -3.53125 L -5.890625 -3.53125 C -5.921875 -3.375 -5.921875 -3.296875 -5.921875 -3.171875 C -5.921875 -2.578125 -5.578125 -2.140625 -4.71875 -1.609375 L -5.765625 -1.609375 L -5.765625 -0.765625 L 0 -0.765625 L 0 -1.6875 L -2.984375 -1.6875 C -4.296875 -1.6875 -4.9375 -2.109375 -4.96875 -3.53125 Z M -4.96875 -3.53125 "/>
</symbol>
<symbol overflow="visible" id="glyph2-8">
<path style="stroke:none;" d="M -5.765625 -5.265625 L -5.765625 -4.265625 L -1.28125 -2.671875 L -5.765625 -1.203125 L -5.765625 -0.21875 L 0.015625 -2.171875 L 0.9375 -1.8125 C 1.34375 -1.65625 1.5 -1.46875 1.5 -1.078125 C 1.5 -0.953125 1.46875 -0.796875 1.4375 -0.59375 L 2.25 -0.59375 C 2.359375 -0.78125 2.390625 -0.96875 2.390625 -1.203125 C 2.390625 -1.859375 2.03125 -2.390625 1.203125 -2.6875 Z M -5.765625 -5.265625 "/>
</symbol>
</g>
<clipPath id="clip1">
  <path d="M 153 5.480469 L 155 5.480469 L 155 253.851562 L 153 253.851562 Z M 153 5.480469 "/>
</clipPath>
<clipPath id="clip2">
  <path d="M 232 5.480469 L 233 5.480469 L 233 253.851562 L 232 253.851562 Z M 232 5.480469 "/>
</clipPath>
<clipPath id="clip3">
  <path d="M 310 5.480469 L 312 5.480469 L 312 253.851562 L 310 253.851562 Z M 310 5.480469 "/>
</clipPath>
<clipPath id="clip4">
  <path d="M 103.152344 224 L 354.523438 224 L 354.523438 226 L 103.152344 226 Z M 103.152344 224 "/>
</clipPath>
<clipPath id="clip5">
  <path d="M 103.152344 176 L 354.523438 176 L 354.523438 178 L 103.152344 178 Z M 103.152344 176 "/>
</clipPath>
<clipPath id="clip6">
  <path d="M 103.152344 129 L 354.523438 129 L 354.523438 131 L 103.152344 131 Z M 103.152344 129 "/>
</clipPath>
<clipPath id="clip7">
  <path d="M 103.152344 81 L 354.523438 81 L 354.523438 83 L 103.152344 83 Z M 103.152344 81 "/>
</clipPath>
<clipPath id="clip8">
  <path d="M 103.152344 33 L 354.523438 33 L 354.523438 35 L 103.152344 35 Z M 103.152344 33 "/>
</clipPath>
<clipPath id="clip9">
  <path d="M 114 5.480469 L 116 5.480469 L 116 253.851562 L 114 253.851562 Z M 114 5.480469 "/>
</clipPath>
<clipPath id="clip10">
  <path d="M 192 5.480469 L 194 5.480469 L 194 253.851562 L 192 253.851562 Z M 192 5.480469 "/>
</clipPath>
<clipPath id="clip11">
  <path d="M 271 5.480469 L 273 5.480469 L 273 253.851562 L 271 253.851562 Z M 271 5.480469 "/>
</clipPath>
<clipPath id="clip12">
  <path d="M 350 5.480469 L 352 5.480469 L 352 253.851562 L 350 253.851562 Z M 350 5.480469 "/>
</clipPath>
</defs>
<g id="surface27">
<rect x="0" y="0" width="360" height="288" style="fill:rgb(100%,100%,100%);fill-opacity:1;stroke:none;"/>
<g clip-path="url(#clip1)" clip-rule="nonzero">
<path style="fill:none;stroke-width:0.533489;stroke-linecap:butt;stroke-linejoin:round;stroke:rgb(92.156863%,92.156863%,92.156863%);stroke-opacity:1;stroke-miterlimit:10;" d="M 153.914062 253.847656 L 153.914062 5.480469 "/>
</g>
<g clip-path="url(#clip2)" clip-rule="nonzero">
<path style="fill:none;stroke-width:0.533489;stroke-linecap:butt;stroke-linejoin:round;stroke:rgb(92.156863%,92.156863%,92.156863%);stroke-opacity:1;stroke-miterlimit:10;" d="M 232.585938 253.847656 L 232.585938 5.480469 "/>
</g>
<g clip-path="url(#clip3)" clip-rule="nonzero">
<path style="fill:none;stroke-width:0.533489;stroke-linecap:butt;stroke-linejoin:round;stroke:rgb(92.156863%,92.156863%,92.156863%);stroke-opacity:1;stroke-miterlimit:10;" d="M 311.261719 253.847656 L 311.261719 5.480469 "/>
</g>
<g clip-path="url(#clip4)" clip-rule="nonzero">
<path style="fill:none;stroke-width:1.066978;stroke-linecap:butt;stroke-linejoin:round;stroke:rgb(92.156863%,92.156863%,92.156863%);stroke-opacity:1;stroke-miterlimit:10;" d="M 103.152344 225.191406 L 354.519531 225.191406 "/>
</g>
<g clip-path="url(#clip5)" clip-rule="nonzero">
<path style="fill:none;stroke-width:1.066978;stroke-linecap:butt;stroke-linejoin:round;stroke:rgb(92.156863%,92.156863%,92.156863%);stroke-opacity:1;stroke-miterlimit:10;" d="M 103.152344 177.429688 L 354.519531 177.429688 "/>
</g>
<g clip-path="url(#clip6)" clip-rule="nonzero">
<path style="fill:none;stroke-width:1.066978;stroke-linecap:butt;stroke-linejoin:round;stroke:rgb(92.156863%,92.156863%,92.156863%);stroke-opacity:1;stroke-miterlimit:10;" d="M 103.152344 129.664062 L 354.519531 129.664062 "/>
</g>
<g clip-path="url(#clip7)" clip-rule="nonzero">
<path style="fill:none;stroke-width:1.066978;stroke-linecap:butt;stroke-linejoin:round;stroke:rgb(92.156863%,92.156863%,92.156863%);stroke-opacity:1;stroke-miterlimit:10;" d="M 103.152344 81.902344 L 354.519531 81.902344 "/>
</g>
<g clip-path="url(#clip8)" clip-rule="nonzero">
<path style="fill:none;stroke-width:1.066978;stroke-linecap:butt;stroke-linejoin:round;stroke:rgb(92.156863%,92.156863%,92.156863%);stroke-opacity:1;stroke-miterlimit:10;" d="M 103.152344 34.136719 L 354.519531 34.136719 "/>
</g>
<g clip-path="url(#clip9)" clip-rule="nonzero">
<path style="fill:none;stroke-width:1.066978;stroke-linecap:butt;stroke-linejoin:round;stroke:rgb(92.156863%,92.156863%,92.156863%);stroke-opacity:1;stroke-miterlimit:10;" d="M 114.578125 253.847656 L 114.578125 5.480469 "/>
</g>
<g clip-path="url(#clip10)" clip-rule="nonzero">
<path style="fill:none;stroke-width:1.066978;stroke-linecap:butt;stroke-linejoin:round;stroke:rgb(92.156863%,92.156863%,92.156863%);stroke-opacity:1;stroke-miterlimit:10;" d="M 193.25 253.847656 L 193.25 5.480469 "/>
</g>
<g clip-path="url(#clip11)" clip-rule="nonzero">
<path style="fill:none;stroke-width:1.066978;stroke-linecap:butt;stroke-linejoin:round;stroke:rgb(92.156863%,92.156863%,92.156863%);stroke-opacity:1;stroke-miterlimit:10;" d="M 271.925781 253.847656 L 271.925781 5.480469 "/>
</g>
<g clip-path="url(#clip12)" clip-rule="nonzero">
<path style="fill:none;stroke-width:1.066978;stroke-linecap:butt;stroke-linejoin:round;stroke:rgb(92.156863%,92.156863%,92.156863%);stroke-opacity:1;stroke-miterlimit:10;" d="M 350.597656 253.847656 L 350.597656 5.480469 "/>
</g>
<path style=" stroke:none;fill-rule:nonzero;fill:rgb(85.098039%,37.254902%,0.784314%);fill-opacity:1;" d="M 114.578125 225.191406 L 116.269531 225.191406 L 116.269531 203.699219 L 114.578125 203.699219 Z M 114.578125 225.191406 "/>
<path style=" stroke:none;fill-rule:nonzero;fill:rgb(10.588235%,61.960784%,46.666667%);fill-opacity:1;" d="M 114.578125 246.683594 L 124.332031 246.683594 L 124.332031 225.191406 L 114.578125 225.191406 Z M 114.578125 246.683594 "/>
<path style=" stroke:none;fill-rule:nonzero;fill:rgb(85.098039%,37.254902%,0.784314%);fill-opacity:1;" d="M 114.578125 177.429688 L 120.359375 177.429688 L 120.359375 155.9375 L 114.578125 155.9375 Z M 114.578125 177.429688 "/>
<path style=" stroke:none;fill-rule:nonzero;fill:rgb(10.588235%,61.960784%,46.666667%);fill-opacity:1;" d="M 114.578125 198.921875 L 131.796875 198.921875 L 131.796875 177.429688 L 114.578125 177.429688 Z M 114.578125 198.921875 "/>
<path style=" stroke:none;fill-rule:nonzero;fill:rgb(10.588235%,61.960784%,46.666667%);fill-opacity:1;" d="M 114.578125 151.15625 L 153.914062 151.15625 L 153.914062 129.664062 L 114.578125 129.664062 Z M 114.578125 151.15625 "/>
<path style=" stroke:none;fill-rule:nonzero;fill:rgb(85.098039%,37.254902%,0.784314%);fill-opacity:1;" d="M 114.578125 81.902344 L 136.933594 81.902344 L 136.933594 60.410156 L 114.578125 60.410156 Z M 114.578125 81.902344 "/>
<path style=" stroke:none;fill-rule:nonzero;fill:rgb(10.588235%,61.960784%,46.666667%);fill-opacity:1;" d="M 114.578125 103.394531 L 194.351562 103.394531 L 194.351562 81.902344 L 114.578125 81.902344 Z M 114.578125 103.394531 "/>
<path style=" stroke:none;fill-rule:nonzero;fill:rgb(85.098039%,37.254902%,0.784314%);fill-opacity:1;" d="M 114.578125 34.136719 L 336.800781 34.136719 L 336.800781 12.644531 L 114.578125 12.644531 Z M 114.578125 34.136719 "/>
<path style=" stroke:none;fill-rule:nonzero;fill:rgb(10.588235%,61.960784%,46.666667%);fill-opacity:1;" d="M 114.578125 55.632812 L 343.097656 55.632812 L 343.097656 34.140625 L 114.578125 34.140625 Z M 114.578125 55.632812 "/>
<g style="fill:rgb(30.196078%,30.196078%,30.196078%);fill-opacity:1;">
  <use xlink:href="#glyph0-1" x="27.21875" y="227.793945"/>
  <use xlink:href="#glyph0-2" x="33.087891" y="227.793945"/>
  <use xlink:href="#glyph0-3" x="37.980469" y="227.793945"/>
  <use xlink:href="#glyph0-3" x="42.873047" y="227.793945"/>
  <use xlink:href="#glyph0-4" x="47.765625" y="227.793945"/>
  <use xlink:href="#glyph0-5" x="49.71875" y="227.793945"/>
  <use xlink:href="#glyph0-6" x="51.671875" y="227.793945"/>
  <use xlink:href="#glyph0-7" x="56.564453" y="227.793945"/>
  <use xlink:href="#glyph0-8" x="60.964844" y="227.793945"/>
  <use xlink:href="#glyph0-1" x="63.411133" y="227.793945"/>
  <use xlink:href="#glyph0-6" x="69.280273" y="227.793945"/>
  <use xlink:href="#glyph0-9" x="74.172852" y="227.793945"/>
  <use xlink:href="#glyph0-10" x="77.367188" y="227.793945"/>
  <use xlink:href="#glyph0-5" x="81.767578" y="227.793945"/>
  <use xlink:href="#glyph0-11" x="83.720703" y="227.793945"/>
  <use xlink:href="#glyph0-6" x="88.121094" y="227.793945"/>
  <use xlink:href="#glyph0-7" x="93.013672" y="227.793945"/>
</g>
<g style="fill:rgb(30.196078%,30.196078%,30.196078%);fill-opacity:1;">
  <use xlink:href="#glyph0-1" x="80.21875" y="180.032227"/>
  <use xlink:href="#glyph0-12" x="86.043945" y="180.032227"/>
  <use xlink:href="#glyph0-13" x="88.490234" y="180.032227"/>
  <use xlink:href="#glyph0-14" x="93.382812" y="180.032227"/>
</g>
<g style="fill:rgb(30.196078%,30.196078%,30.196078%);fill-opacity:1;">
  <use xlink:href="#glyph0-15" x="20.21875" y="132.266602"/>
  <use xlink:href="#glyph0-16" x="25.595703" y="132.266602"/>
  <use xlink:href="#glyph0-17" x="30.972656" y="132.266602"/>
  <use xlink:href="#glyph0-15" x="33.418945" y="132.266602"/>
  <use xlink:href="#glyph0-13" x="38.488281" y="132.266602"/>
  <use xlink:href="#glyph0-11" x="43.380859" y="132.266602"/>
  <use xlink:href="#glyph0-8" x="47.78125" y="132.266602"/>
  <use xlink:href="#glyph0-18" x="50.227539" y="132.266602"/>
  <use xlink:href="#glyph0-11" x="56.008789" y="132.266602"/>
  <use xlink:href="#glyph0-13" x="60.40918" y="132.266602"/>
  <use xlink:href="#glyph0-19" x="65.301758" y="132.266602"/>
  <use xlink:href="#glyph0-20" x="70.194336" y="132.266602"/>
  <use xlink:href="#glyph0-17" x="72.640625" y="132.266602"/>
  <use xlink:href="#glyph0-1" x="75.086914" y="132.266602"/>
  <use xlink:href="#glyph0-3" x="80.956055" y="132.266602"/>
  <use xlink:href="#glyph0-6" x="85.848633" y="132.266602"/>
  <use xlink:href="#glyph0-11" x="90.741211" y="132.266602"/>
  <use xlink:href="#glyph0-20" x="95.141602" y="132.266602"/>
</g>
<g style="fill:rgb(30.196078%,30.196078%,30.196078%);fill-opacity:1;">
  <use xlink:href="#glyph0-21" x="78.21875" y="84.504883"/>
  <use xlink:href="#glyph0-9" x="85.06543" y="84.504883"/>
  <use xlink:href="#glyph0-13" x="87.952148" y="84.504883"/>
  <use xlink:href="#glyph0-19" x="92.844727" y="84.504883"/>
</g>
<g style="fill:rgb(30.196078%,30.196078%,30.196078%);fill-opacity:1;">
  <use xlink:href="#glyph0-16" x="56.21875" y="36.739258"/>
  <use xlink:href="#glyph0-16" x="61.595703" y="36.739258"/>
  <use xlink:href="#glyph0-17" x="66.972656" y="36.739258"/>
  <use xlink:href="#glyph0-15" x="69.418945" y="36.739258"/>
  <use xlink:href="#glyph0-13" x="74.488281" y="36.739258"/>
  <use xlink:href="#glyph0-11" x="79.380859" y="36.739258"/>
  <use xlink:href="#glyph0-2" x="83.78125" y="36.739258"/>
  <use xlink:href="#glyph0-4" x="88.673828" y="36.739258"/>
  <use xlink:href="#glyph0-12" x="90.626953" y="36.739258"/>
  <use xlink:href="#glyph0-22" x="93.073242" y="36.739258"/>
</g>
<g style="fill:rgb(30.196078%,30.196078%,30.196078%);fill-opacity:1;">
  <use xlink:href="#glyph0-23" x="102.078125" y="264.883789"/>
  <use xlink:href="#glyph0-6" x="106.970703" y="264.883789"/>
  <use xlink:href="#glyph0-24" x="111.863281" y="264.883789"/>
  <use xlink:href="#glyph0-23" x="117.001953" y="264.883789"/>
  <use xlink:href="#glyph0-23" x="121.894531" y="264.883789"/>
</g>
<g style="fill:rgb(30.196078%,30.196078%,30.196078%);fill-opacity:1;">
  <use xlink:href="#glyph0-25" x="180.75" y="264.883789"/>
  <use xlink:href="#glyph0-6" x="185.642578" y="264.883789"/>
  <use xlink:href="#glyph0-24" x="190.535156" y="264.883789"/>
  <use xlink:href="#glyph0-23" x="195.673828" y="264.883789"/>
  <use xlink:href="#glyph0-26" x="200.566406" y="264.883789"/>
</g>
<g style="fill:rgb(30.196078%,30.196078%,30.196078%);fill-opacity:1;">
  <use xlink:href="#glyph0-27" x="259.425781" y="264.883789"/>
  <use xlink:href="#glyph0-6" x="264.318359" y="264.883789"/>
  <use xlink:href="#glyph0-24" x="269.210938" y="264.883789"/>
  <use xlink:href="#glyph0-23" x="274.349609" y="264.883789"/>
  <use xlink:href="#glyph0-26" x="279.242188" y="264.883789"/>
</g>
<g style="fill:rgb(30.196078%,30.196078%,30.196078%);fill-opacity:1;">
  <use xlink:href="#glyph0-28" x="338.097656" y="264.883789"/>
  <use xlink:href="#glyph0-6" x="342.990234" y="264.883789"/>
  <use xlink:href="#glyph0-24" x="347.882812" y="264.883789"/>
  <use xlink:href="#glyph0-23" x="353.021484" y="264.883789"/>
  <use xlink:href="#glyph0-26" x="357.914062" y="264.883789"/>
</g>
<g style="fill:rgb(0%,0%,0%);fill-opacity:1;">
  <use xlink:href="#glyph1-1" x="209.835938" y="279.147461"/>
  <use xlink:href="#glyph1-2" x="217.172852" y="279.147461"/>
  <use xlink:href="#glyph1-3" x="226.335938" y="279.147461"/>
  <use xlink:href="#glyph1-4" x="232.452148" y="279.147461"/>
  <use xlink:href="#glyph1-5" x="238.568359" y="279.147461"/>
  <use xlink:href="#glyph1-6" x="244.68457" y="279.147461"/>
</g>
<g style="fill:rgb(0%,0%,0%);fill-opacity:1;">
  <use xlink:href="#glyph2-1" x="14.108398" y="152.164062"/>
  <use xlink:href="#glyph2-2" x="14.108398" y="144.22168"/>
  <use xlink:href="#glyph2-3" x="14.108398" y="138.105469"/>
  <use xlink:href="#glyph2-4" x="14.108398" y="135.212891"/>
  <use xlink:href="#glyph2-5" x="14.108398" y="129.09668"/>
  <use xlink:href="#glyph2-6" x="14.108398" y="122.980469"/>
  <use xlink:href="#glyph2-7" x="14.108398" y="116.864258"/>
  <use xlink:href="#glyph2-8" x="14.108398" y="112.925781"/>
</g>
<g style="fill:rgb(0%,0%,0%);fill-opacity:1;">
  <use xlink:href="#glyph1-7" x="235.230469" y="188.28418"/>
  <use xlink:href="#glyph1-4" x="242.567383" y="188.28418"/>
  <use xlink:href="#glyph1-8" x="248.683594" y="188.28418"/>
  <use xlink:href="#glyph1-9" x="254.799805" y="188.28418"/>
  <use xlink:href="#glyph1-10" x="260.916016" y="188.28418"/>
  <use xlink:href="#glyph1-6" x="266.921875" y="188.28418"/>
  <use xlink:href="#glyph1-10" x="269.814453" y="188.28418"/>
  <use xlink:href="#glyph1-8" x="275.930664" y="188.28418"/>
</g>
<path style=" stroke:none;fill-rule:nonzero;fill:rgb(10.588235%,61.960784%,46.666667%);fill-opacity:1;" d="M 235.9375 212.207031 L 251.800781 212.207031 L 251.800781 196.34375 L 235.9375 196.34375 Z M 235.9375 212.207031 "/>
<path style=" stroke:none;fill-rule:nonzero;fill:rgb(85.098039%,37.254902%,0.784314%);fill-opacity:1;" d="M 235.9375 229.488281 L 251.800781 229.488281 L 251.800781 213.625 L 235.9375 213.625 Z M 235.9375 229.488281 "/>
<g style="fill:rgb(0%,0%,0%);fill-opacity:1;">
  <use xlink:href="#glyph0-29" x="257.988281" y="206.875977"/>
  <use xlink:href="#glyph0-30" x="264.341797" y="206.875977"/>
  <use xlink:href="#glyph0-31" x="269.234375" y="206.875977"/>
  <use xlink:href="#glyph0-31" x="276.564453" y="206.875977"/>
  <use xlink:href="#glyph0-5" x="283.894531" y="206.875977"/>
  <use xlink:href="#glyph0-12" x="285.847656" y="206.875977"/>
  <use xlink:href="#glyph0-31" x="288.293945" y="206.875977"/>
  <use xlink:href="#glyph0-6" x="295.624023" y="206.875977"/>
  <use xlink:href="#glyph0-32" x="300.516602" y="206.875977"/>
  <use xlink:href="#glyph0-12" x="305.40918" y="206.875977"/>
  <use xlink:href="#glyph0-7" x="307.855469" y="206.875977"/>
</g>
<g style="fill:rgb(0%,0%,0%);fill-opacity:1;">
  <use xlink:href="#glyph0-33" x="257.988281" y="224.157227"/>
  <use xlink:href="#glyph0-6" x="264.253906" y="224.157227"/>
  <use xlink:href="#glyph0-11" x="269.146484" y="224.157227"/>
  <use xlink:href="#glyph0-2" x="273.546875" y="224.157227"/>
  <use xlink:href="#glyph0-9" x="278.439453" y="224.157227"/>
  <use xlink:href="#glyph0-9" x="281.370117" y="224.157227"/>
  <use xlink:href="#glyph0-5" x="284.300781" y="224.157227"/>
  <use xlink:href="#glyph0-32" x="286.253906" y="224.157227"/>
  <use xlink:href="#glyph0-34" x="291.146484" y="224.157227"/>
  <use xlink:href="#glyph0-17" x="296.039062" y="224.157227"/>
  <use xlink:href="#glyph0-15" x="298.485352" y="224.157227"/>
  <use xlink:href="#glyph0-2" x="303.554688" y="224.157227"/>
  <use xlink:href="#glyph0-32" x="308.447266" y="224.157227"/>
  <use xlink:href="#glyph0-19" x="313.339844" y="224.157227"/>
  <use xlink:href="#glyph0-7" x="318.232422" y="224.157227"/>
</g>
</g>
</svg>
