<?xml version="1.0" encoding="UTF-8"?>
<svg xmlns="http://www.w3.org/2000/svg" xmlns:xlink="http://www.w3.org/1999/xlink" width="504pt" height="360pt" viewBox="0 0 504 360" version="1.1">
<defs>
<g>
<symbol overflow="visible" id="glyph0-0">
<path style="stroke:none;" d=""/>
</symbol>
<symbol overflow="visible" id="glyph0-1">
<path style="stroke:none;" d="M 5.46875 -1.765625 C 5.46875 -2.546875 4.96875 -3.125 4.09375 -3.375 L 2.484375 -3.796875 C 1.71875 -4 1.4375 -4.25 1.4375 -4.75 C 1.4375 -5.40625 2 -5.890625 2.875 -5.890625 C 3.890625 -5.890625 4.46875 -5.421875 4.46875 -4.578125 L 5.25 -4.578125 C 5.25 -5.84375 4.375 -6.578125 2.890625 -6.578125 C 1.484375 -6.578125 0.609375 -5.796875 0.609375 -4.640625 C 0.609375 -3.859375 1.03125 -3.359375 1.875 -3.140625 L 3.46875 -2.71875 C 4.28125 -2.5 4.640625 -2.1875 4.640625 -1.6875 C 4.640625 -0.96875 4.109375 -0.5625 3.015625 -0.5625 C 1.796875 -0.5625 1.203125 -1.171875 1.203125 -2.078125 L 0.421875 -2.078125 C 0.421875 -0.578125 1.4375 0.15625 2.953125 0.15625 C 4.578125 0.15625 5.46875 -0.609375 5.46875 -1.765625 Z M 5.46875 -1.765625 "/>
</symbol>
<symbol overflow="visible" id="glyph0-2">
<path style="stroke:none;" d="M 5.421875 -4.53125 C 5.421875 -5.734375 4.71875 -6.40625 3.453125 -6.40625 L 0.796875 -6.40625 L 0.796875 0 L 1.625 0 L 1.625 -2.71875 L 3.640625 -2.71875 C 4.6875 -2.71875 5.421875 -3.46875 5.421875 -4.53125 Z M 4.578125 -4.5625 C 4.578125 -3.859375 4.109375 -3.4375 3.328125 -3.4375 L 1.625 -3.4375 L 1.625 -5.6875 L 3.328125 -5.6875 C 4.109375 -5.6875 4.578125 -5.265625 4.578125 -4.5625 Z M 4.578125 -4.5625 "/>
</symbol>
<symbol overflow="visible" id="glyph0-3">
<path style="stroke:none;" d="M 5.875 -3.203125 C 5.875 -5.203125 4.875 -6.40625 3.25 -6.40625 L 0.78125 -6.40625 L 0.78125 0 L 3.25 0 C 4.875 0 5.875 -1.21875 5.875 -3.203125 Z M 5.046875 -3.203125 C 5.046875 -1.578125 4.375 -0.71875 3.109375 -0.71875 L 1.59375 -0.71875 L 1.59375 -5.6875 L 3.109375 -5.6875 C 4.375 -5.6875 5.046875 -4.84375 5.046875 -3.203125 Z M 5.046875 -3.203125 "/>
</symbol>
<symbol overflow="visible" id="glyph0-4">
<path style="stroke:none;" d="M 5.953125 -2.34375 L 5.109375 -2.34375 C 4.921875 -1.125 4.40625 -0.5625 3.328125 -0.5625 C 2.046875 -0.5625 1.234375 -1.546875 1.234375 -3.140625 C 1.234375 -4.78125 2.015625 -5.84375 3.25 -5.84375 C 4.25 -5.84375 4.78125 -5.40625 4.984375 -4.421875 L 5.828125 -4.421875 C 5.5625 -5.828125 4.765625 -6.578125 3.359375 -6.578125 C 1.40625 -6.578125 0.421875 -5 0.421875 -3.125 C 0.421875 -1.265625 1.4375 0.15625 3.3125 0.15625 C 4.875 0.15625 5.765625 -0.671875 5.953125 -2.34375 Z M 5.953125 -2.34375 "/>
</symbol>
<symbol overflow="visible" id="glyph0-5">
<path style="stroke:none;" d="M 5.671875 0 L 5.671875 -6.40625 L 4.84375 -6.40625 L 4.84375 -3.640625 L 1.546875 -3.640625 L 1.546875 -6.40625 L 0.734375 -6.40625 L 0.734375 0 L 1.546875 0 L 1.546875 -2.921875 L 4.84375 -2.921875 L 4.84375 0 Z M 5.671875 0 "/>
</symbol>
<symbol overflow="visible" id="glyph0-6">
<path style="stroke:none;" d="M 5.96875 0 L 5.96875 -0.203125 C 5.671875 -0.40625 5.59375 -0.640625 5.59375 -1.5 C 5.5625 -2.546875 5.40625 -2.875 4.71875 -3.171875 C 5.4375 -3.515625 5.734375 -3.96875 5.734375 -4.703125 C 5.734375 -5.8125 5.03125 -6.40625 3.78125 -6.40625 L 0.8125 -6.40625 L 0.8125 0 L 1.640625 0 L 1.640625 -2.765625 L 3.75 -2.765625 C 4.46875 -2.765625 4.8125 -2.40625 4.796875 -1.625 L 4.796875 -1.046875 C 4.78125 -0.65625 4.859375 -0.265625 4.984375 0 Z M 4.875 -4.578125 C 4.875 -3.828125 4.484375 -3.484375 3.609375 -3.484375 L 1.640625 -3.484375 L 1.640625 -5.6875 L 3.609375 -5.6875 C 4.53125 -5.6875 4.875 -5.296875 4.875 -4.578125 Z M 4.875 -4.578125 "/>
</symbol>
<symbol overflow="visible" id="glyph0-7">
<path style="stroke:none;" d="M 4.6875 0 L 4.6875 -0.71875 L 1.515625 -0.71875 L 1.515625 -6.40625 L 0.703125 -6.40625 L 0.703125 0 Z M 4.6875 0 "/>
</symbol>
<symbol overflow="visible" id="glyph0-8">
<path style="stroke:none;" d="M 3.75 -1.640625 L 3.75 -6.40625 L 2.921875 -6.40625 L 2.921875 -1.9375 C 2.921875 -0.890625 2.5625 -0.53125 1.9375 -0.53125 C 1.328125 -0.53125 0.984375 -0.9375 0.984375 -1.6875 L 0.984375 -2.0625 L 0.171875 -2.0625 L 0.171875 -1.546875 C 0.171875 -0.5 0.8125 0.15625 1.9375 0.15625 C 3.046875 0.15625 3.75 -0.53125 3.75 -1.640625 Z M 3.75 -1.640625 "/>
</symbol>
<symbol overflow="visible" id="glyph0-9">
<path style="stroke:none;" d="M 8.171875 -6.40625 L 7.25 -6.40625 L 6.078125 -1.203125 L 4.625 -6.40625 L 3.734375 -6.40625 L 2.3125 -1.203125 L 1.109375 -6.40625 L 0.1875 -6.40625 L 1.84375 0 L 2.734375 0 L 4.171875 -5.265625 L 5.640625 0 L 6.546875 0 Z M 8.171875 -6.40625 "/>
</symbol>
<symbol overflow="visible" id="glyph0-10">
<path style="stroke:none;" d="M 6.53125 -3.109375 C 6.53125 -5.171875 5.296875 -6.578125 3.421875 -6.578125 C 1.578125 -6.578125 0.328125 -5.15625 0.328125 -3.15625 C 0.328125 -1.15625 1.578125 0.15625 3.4375 0.15625 C 5.3125 0.15625 6.53125 -1.21875 6.53125 -3.109375 Z M 5.703125 -3.125 C 5.703125 -1.578125 4.78125 -0.5625 3.4375 -0.5625 C 2.0625 -0.5625 1.15625 -1.578125 1.15625 -3.15625 C 1.15625 -4.734375 2.0625 -5.84375 3.421875 -5.84375 C 4.8125 -5.84375 5.703125 -4.734375 5.703125 -3.125 Z M 5.703125 -3.125 "/>
</symbol>
<symbol overflow="visible" id="glyph0-11">
<path style="stroke:none;" d="M 6.234375 0 L 6.234375 -3.390625 L 3.5625 -3.390625 L 3.5625 -2.671875 L 5.515625 -2.671875 L 5.515625 -2.484375 C 5.515625 -1.34375 4.671875 -0.5625 3.5 -0.5625 C 2.046875 -0.5625 1.203125 -1.625 1.203125 -3.1875 C 1.203125 -4.765625 2.109375 -5.84375 3.453125 -5.84375 C 4.4375 -5.84375 5.140625 -5.296875 5.3125 -4.46875 L 6.15625 -4.46875 C 5.921875 -5.765625 4.9375 -6.578125 3.46875 -6.578125 C 1.5 -6.578125 0.390625 -5.0625 0.390625 -3.140625 C 0.390625 -1.171875 1.59375 0.15625 3.328125 0.15625 C 4.203125 0.15625 4.890625 -0.15625 5.515625 -0.84375 L 5.71875 0 Z M 6.234375 0 "/>
</symbol>
<symbol overflow="visible" id="glyph0-12">
<path style="stroke:none;" d="M 5.390625 0 L 5.390625 -0.71875 L 1.609375 -0.71875 L 1.609375 -2.921875 L 5.109375 -2.921875 L 5.109375 -3.640625 L 1.609375 -3.640625 L 1.609375 -5.6875 L 5.234375 -5.6875 L 5.234375 -6.40625 L 0.796875 -6.40625 L 0.796875 0 Z M 5.390625 0 "/>
</symbol>
<symbol overflow="visible" id="glyph0-13">
<path style="stroke:none;" d="M 5.75 0 L 3.5 -6.40625 L 2.4375 -6.40625 L 0.15625 0 L 1.015625 0 L 1.703125 -1.921875 L 4.171875 -1.921875 L 4.828125 0 Z M 3.9375 -2.609375 L 1.90625 -2.609375 L 2.953125 -5.53125 Z M 3.9375 -2.609375 "/>
</symbol>
<symbol overflow="visible" id="glyph0-14">
<path style="stroke:none;" d="M 5.6875 0 L 5.6875 -6.40625 L 4.90625 -6.40625 L 4.90625 -1.171875 L 1.5625 -6.40625 L 0.671875 -6.40625 L 0.671875 0 L 1.4375 0 L 1.4375 -5.203125 L 4.765625 0 Z M 5.6875 0 "/>
</symbol>
<symbol overflow="visible" id="glyph0-15">
<path style="stroke:none;" d="M 5.21875 -5.6875 L 5.21875 -6.40625 L 0.1875 -6.40625 L 0.1875 -5.6875 L 2.296875 -5.6875 L 2.296875 0 L 3.109375 0 L 3.109375 -5.6875 Z M 5.21875 -5.6875 "/>
</symbol>
<symbol overflow="visible" id="glyph0-16">
<path style="stroke:none;" d="M 5.09375 -5.6875 L 5.09375 -6.40625 L 0.796875 -6.40625 L 0.796875 0 L 1.609375 0 L 1.609375 -2.921875 L 4.671875 -2.921875 L 4.671875 -3.640625 L 1.609375 -3.640625 L 1.609375 -5.6875 Z M 5.09375 -5.6875 "/>
</symbol>
<symbol overflow="visible" id="glyph0-17">
<path style="stroke:none;" d="M 5.8125 -6.40625 L 4.84375 -6.40625 L 3.015625 -3.296875 L 1.125 -6.40625 L 0.109375 -6.40625 L 2.59375 -2.515625 L 2.59375 0 L 3.40625 0 L 3.40625 -2.515625 Z M 5.8125 -6.40625 "/>
</symbol>
<symbol overflow="visible" id="glyph0-18">
<path style="stroke:none;" d="M 4.453125 -3 C 4.453125 -5.15625 3.78125 -6.234375 2.421875 -6.234375 C 1.078125 -6.234375 0.375 -5.140625 0.375 -3.046875 C 0.375 -0.953125 1.078125 0.125 2.421875 0.125 C 3.734375 0.125 4.453125 -0.953125 4.453125 -3 Z M 3.671875 -3.0625 C 3.671875 -1.296875 3.265625 -0.515625 2.40625 -0.515625 C 1.578125 -0.515625 1.171875 -1.34375 1.171875 -3.046875 C 1.171875 -4.75 1.578125 -5.546875 2.421875 -5.546875 C 3.25 -5.546875 3.671875 -4.734375 3.671875 -3.0625 Z M 3.671875 -3.0625 "/>
</symbol>
<symbol overflow="visible" id="glyph0-19">
<path style="stroke:none;" d="M 4.515625 -2.0625 C 4.515625 -3.296875 3.6875 -4.109375 2.5 -4.109375 C 2.0625 -4.109375 1.703125 -4 1.34375 -3.734375 L 1.59375 -5.34375 L 4.1875 -5.34375 L 4.1875 -6.109375 L 0.96875 -6.109375 L 0.5 -2.84375 L 1.21875 -2.84375 C 1.578125 -3.265625 1.875 -3.421875 2.359375 -3.421875 C 3.1875 -3.421875 3.71875 -2.890625 3.71875 -1.96875 C 3.71875 -1.0625 3.203125 -0.546875 2.359375 -0.546875 C 1.6875 -0.546875 1.265625 -0.890625 1.078125 -1.59375 L 0.3125 -1.59375 C 0.5625 -0.359375 1.265625 0.125 2.375 0.125 C 3.640625 0.125 4.515625 -0.75 4.515625 -2.0625 Z M 4.515625 -2.0625 "/>
</symbol>
<symbol overflow="visible" id="glyph0-20">
<path style="stroke:none;" d="M 3.046875 0 L 3.046875 -6.234375 L 2.546875 -6.234375 C 2.265625 -5.28125 2.09375 -5.140625 0.890625 -5 L 0.890625 -4.4375 L 2.28125 -4.4375 L 2.28125 0 Z M 3.046875 0 "/>
</symbol>
<symbol overflow="visible" id="glyph0-21">
<path style="stroke:none;" d="M 4.5 -4.40625 C 4.5 -5.46875 3.671875 -6.234375 2.5 -6.234375 C 1.21875 -6.234375 0.484375 -5.59375 0.4375 -4.078125 L 1.21875 -4.078125 C 1.28125 -5.125 1.703125 -5.5625 2.46875 -5.5625 C 3.171875 -5.5625 3.703125 -5.0625 3.703125 -4.390625 C 3.703125 -3.890625 3.40625 -3.46875 2.859375 -3.15625 L 2.046875 -2.703125 C 0.75 -1.96875 0.375 -1.375 0.296875 0 L 4.453125 0 L 4.453125 -0.765625 L 1.171875 -0.765625 C 1.25 -1.28125 1.53125 -1.59375 2.296875 -2.046875 L 3.171875 -2.53125 C 4.046875 -2.984375 4.5 -3.640625 4.5 -4.40625 Z M 4.5 -4.40625 "/>
</symbol>
<symbol overflow="visible" id="glyph0-22">
<path style="stroke:none;" d="M 1.703125 0 L 1.703125 -6.40625 L 0.875 -6.40625 L 0.875 0 Z M 1.703125 0 "/>
</symbol>
<symbol overflow="visible" id="glyph0-23">
<path style="stroke:none;" d="M 4.28125 0 L 4.28125 -3.484375 C 4.28125 -4.25 3.71875 -4.734375 2.828125 -4.734375 C 2.140625 -4.734375 1.703125 -4.484375 1.296875 -3.828125 L 1.296875 -4.609375 L 0.609375 -4.609375 L 0.609375 0 L 1.34375 0 L 1.34375 -2.546875 C 1.34375 -3.484375 1.859375 -4.09375 2.609375 -4.09375 C 3.1875 -4.09375 3.546875 -3.75 3.546875 -3.1875 L 3.546875 0 Z M 4.28125 0 "/>
</symbol>
<symbol overflow="visible" id="glyph0-24">
<path style="stroke:none;" d=""/>
</symbol>
<symbol overflow="visible" id="glyph0-25">
<path style="stroke:none;" d="M 6.6875 0 L 6.6875 -6.40625 L 5.5625 -6.40625 L 3.6875 -0.828125 L 1.796875 -6.40625 L 0.65625 -6.40625 L 0.65625 0 L 1.4375 0 L 1.4375 -5.375 L 3.25 0 L 4.109375 0 L 5.921875 -5.375 L 5.921875 0 Z M 6.6875 0 "/>
</symbol>
<symbol overflow="visible" id="glyph0-26">
<path style="stroke:none;" d="M 4.703125 -0.015625 L 4.703125 -0.578125 C 4.625 -0.546875 4.59375 -0.546875 4.546875 -0.546875 C 4.296875 -0.546875 4.15625 -0.6875 4.15625 -0.921875 L 4.15625 -3.484375 C 4.15625 -4.296875 3.546875 -4.734375 2.421875 -4.734375 C 1.296875 -4.734375 0.609375 -4.3125 0.578125 -3.25 L 1.3125 -3.25 C 1.375 -3.8125 1.703125 -4.0625 2.390625 -4.0625 C 3.046875 -4.0625 3.421875 -3.8125 3.421875 -3.375 L 3.421875 -3.1875 C 3.421875 -2.875 3.234375 -2.75 2.65625 -2.671875 C 1.625 -2.546875 1.453125 -2.5 1.171875 -2.390625 C 0.640625 -2.171875 0.375 -1.765625 0.375 -1.203125 C 0.375 -0.359375 0.953125 0.125 1.875 0.125 C 2.46875 0.125 3.046875 -0.109375 3.453125 -0.546875 C 3.53125 -0.1875 3.84375 0.0625 4.203125 0.0625 C 4.359375 0.0625 4.46875 0.046875 4.703125 -0.015625 Z M 3.421875 -1.59375 C 3.421875 -0.9375 2.75 -0.515625 2.046875 -0.515625 C 1.46875 -0.515625 1.140625 -0.71875 1.140625 -1.21875 C 1.140625 -1.703125 1.453125 -1.90625 2.25 -2.015625 C 3.015625 -2.125 3.171875 -2.15625 3.421875 -2.28125 Z M 3.421875 -1.59375 "/>
</symbol>
<symbol overflow="visible" id="glyph0-27">
<path style="stroke:none;" d="M 1.34375 0.953125 L 1.34375 -4.609375 L 0.609375 -4.609375 L 0.609375 0.671875 C 0.609375 1.109375 0.46875 1.296875 0.015625 1.28125 L -0.15625 1.265625 L -0.15625 1.890625 C -0.078125 1.90625 -0.03125 1.921875 0.09375 1.921875 C 0.921875 1.921875 1.34375 1.578125 1.34375 0.953125 Z M 1.4375 -5.296875 L 1.4375 -6.21875 L 0.53125 -6.21875 L 0.53125 -5.296875 Z M 1.4375 -5.296875 "/>
</symbol>
<symbol overflow="visible" id="glyph0-28">
<path style="stroke:none;" d="M 4.484375 -2.265625 C 4.484375 -3.859375 3.71875 -4.734375 2.390625 -4.734375 C 1.09375 -4.734375 0.3125 -3.859375 0.3125 -2.3125 C 0.3125 -0.75 1.09375 0.125 2.40625 0.125 C 3.6875 0.125 4.484375 -0.75 4.484375 -2.265625 Z M 3.71875 -2.28125 C 3.71875 -1.203125 3.203125 -0.546875 2.40625 -0.546875 C 1.578125 -0.546875 1.078125 -1.1875 1.078125 -2.3125 C 1.078125 -3.40625 1.578125 -4.0625 2.40625 -4.0625 C 3.234375 -4.0625 3.71875 -3.421875 3.71875 -2.28125 Z M 3.71875 -2.28125 "/>
</symbol>
<symbol overflow="visible" id="glyph0-29">
<path style="stroke:none;" d="M 2.828125 -3.96875 L 2.828125 -4.71875 C 2.703125 -4.734375 2.640625 -4.734375 2.546875 -4.734375 C 2.0625 -4.734375 1.703125 -4.453125 1.28125 -3.78125 L 1.28125 -4.609375 L 0.609375 -4.609375 L 0.609375 0 L 1.34375 0 L 1.34375 -2.390625 C 1.34375 -3.4375 1.6875 -3.953125 2.828125 -3.96875 Z M 2.828125 -3.96875 "/>
</symbol>
<symbol overflow="visible" id="glyph1-0">
<path style="stroke:none;" d=""/>
</symbol>
<symbol overflow="visible" id="glyph1-1">
<path style="stroke:none;" d="M 7.46875 0 L 7.46875 -0.25 C 7.078125 -0.515625 7 -0.796875 6.984375 -1.875 C 6.96875 -3.1875 6.765625 -3.59375 5.890625 -3.953125 C 6.796875 -4.40625 7.15625 -4.96875 7.15625 -5.875 C 7.15625 -7.265625 6.296875 -8.015625 4.71875 -8.015625 L 1.015625 -8.015625 L 1.015625 0 L 2.046875 0 L 2.046875 -3.453125 L 4.6875 -3.453125 C 5.59375 -3.453125 6.015625 -3.015625 6 -2.03125 L 6 -1.3125 C 5.984375 -0.8125 6.078125 -0.328125 6.21875 0 Z M 6.09375 -5.734375 C 6.09375 -4.78125 5.609375 -4.359375 4.515625 -4.359375 L 2.046875 -4.359375 L 2.046875 -7.109375 L 4.515625 -7.109375 C 5.671875 -7.109375 6.09375 -6.640625 6.09375 -5.734375 Z M 6.09375 -5.734375 "/>
</symbol>
<symbol overflow="visible" id="glyph1-2">
<path style="stroke:none;" d="M 5.640625 -2.625 C 5.640625 -3.453125 5.578125 -3.984375 5.40625 -4.40625 C 5.03125 -5.359375 4.15625 -5.921875 3.078125 -5.921875 C 1.46875 -5.921875 0.4375 -4.734375 0.4375 -2.84375 C 0.4375 -0.953125 1.4375 0.171875 3.0625 0.171875 C 4.375 0.171875 5.296875 -0.578125 5.515625 -1.75 L 4.59375 -1.75 C 4.34375 -0.984375 3.828125 -0.6875 3.09375 -0.6875 C 2.140625 -0.6875 1.421875 -1.296875 1.390625 -2.625 Z M 4.65625 -3.4375 C 4.65625 -3.4375 4.65625 -3.390625 4.65625 -3.359375 L 1.421875 -3.359375 C 1.5 -4.390625 2.140625 -5.078125 3.0625 -5.078125 C 3.96875 -5.078125 4.65625 -4.328125 4.65625 -3.4375 Z M 4.65625 -3.4375 "/>
</symbol>
<symbol overflow="visible" id="glyph1-3">
<path style="stroke:none;" d="M 5.34375 -5.765625 L 4.3125 -5.765625 L 2.6875 -1.09375 L 1.140625 -5.765625 L 0.109375 -5.765625 L 2.140625 0 L 3.140625 0 Z M 5.34375 -5.765625 "/>
</symbol>
<symbol overflow="visible" id="glyph1-4">
<path style="stroke:none;" d="M 5.359375 0 L 5.359375 -4.359375 C 5.359375 -5.3125 4.640625 -5.921875 3.53125 -5.921875 C 2.671875 -5.921875 2.125 -5.59375 1.609375 -4.796875 L 1.609375 -5.765625 L 0.765625 -5.765625 L 0.765625 0 L 1.6875 0 L 1.6875 -3.171875 C 1.6875 -4.359375 2.328125 -5.125 3.25 -5.125 C 3.984375 -5.125 4.4375 -4.6875 4.4375 -4 L 4.4375 0 Z M 5.359375 0 "/>
</symbol>
<symbol overflow="visible" id="glyph1-5">
<path style="stroke:none;" d="M 5.296875 0 L 5.296875 -5.765625 L 4.390625 -5.765625 L 4.390625 -2.578125 C 4.390625 -1.40625 3.765625 -0.640625 2.8125 -0.640625 C 2.09375 -0.640625 1.625 -1.078125 1.625 -1.765625 L 1.625 -5.765625 L 0.71875 -5.765625 L 0.71875 -1.40625 C 0.71875 -0.453125 1.4375 0.171875 2.546875 0.171875 C 3.40625 0.171875 3.9375 -0.125 4.484375 -0.890625 L 4.484375 0 Z M 5.296875 0 "/>
</symbol>
<symbol overflow="visible" id="glyph1-6">
<path style="stroke:none;" d="M 6.515625 -7.109375 L 6.515625 -8.015625 L 0.234375 -8.015625 L 0.234375 -7.109375 L 2.875 -7.109375 L 2.875 0 L 3.890625 0 L 3.890625 -7.109375 Z M 6.515625 -7.109375 "/>
</symbol>
<symbol overflow="visible" id="glyph1-7">
<path style="stroke:none;" d="M 5.265625 -5.765625 L 4.265625 -5.765625 L 2.671875 -1.28125 L 1.203125 -5.765625 L 0.21875 -5.765625 L 2.171875 0.015625 L 1.8125 0.9375 C 1.65625 1.34375 1.46875 1.5 1.078125 1.5 C 0.953125 1.5 0.796875 1.46875 0.59375 1.4375 L 0.59375 2.25 C 0.78125 2.359375 0.96875 2.390625 1.203125 2.390625 C 1.859375 2.390625 2.390625 2.03125 2.6875 1.203125 Z M 5.265625 -5.765625 "/>
</symbol>
<symbol overflow="visible" id="glyph1-8">
<path style="stroke:none;" d="M 5.75 -2.828125 C 5.75 -4.765625 4.8125 -5.921875 3.28125 -5.921875 C 2.5 -5.921875 1.875 -5.578125 1.4375 -4.890625 L 1.4375 -5.765625 L 0.609375 -5.765625 L 0.609375 2.390625 L 1.515625 2.390625 L 1.515625 -0.6875 C 2 -0.09375 2.546875 0.171875 3.28125 0.171875 C 4.78125 0.171875 5.75 -0.984375 5.75 -2.828125 Z M 4.796875 -2.84375 C 4.796875 -1.546875 4.125 -0.6875 3.125 -0.6875 C 2.15625 -0.6875 1.515625 -1.484375 1.515625 -2.84375 C 1.515625 -4.1875 2.15625 -5.078125 3.125 -5.078125 C 4.140625 -5.078125 4.796875 -4.21875 4.796875 -2.84375 Z M 4.796875 -2.84375 "/>
</symbol>
<symbol overflow="visible" id="glyph2-0">
<path style="stroke:none;" d=""/>
</symbol>
<symbol overflow="visible" id="glyph2-1">
<path style="stroke:none;" d="M -4.015625 -7.34375 C -6.5 -7.34375 -8.015625 -6.109375 -8.015625 -4.0625 L -8.015625 -0.984375 L 0 -0.984375 L 0 -4.0625 C 0 -6.09375 -1.515625 -7.34375 -4.015625 -7.34375 Z M -4 -6.3125 C -1.984375 -6.3125 -0.90625 -5.484375 -0.90625 -3.890625 L -0.90625 -2 L -7.109375 -2 L -7.109375 -3.890625 C -7.109375 -5.484375 -6.046875 -6.3125 -4 -6.3125 Z M -4 -6.3125 "/>
</symbol>
<symbol overflow="visible" id="glyph2-2">
<path style="stroke:none;" d="M -2.625 -5.640625 C -3.453125 -5.640625 -3.984375 -5.578125 -4.40625 -5.40625 C -5.359375 -5.03125 -5.921875 -4.15625 -5.921875 -3.078125 C -5.921875 -1.46875 -4.734375 -0.4375 -2.84375 -0.4375 C -0.953125 -0.4375 0.171875 -1.4375 0.171875 -3.0625 C 0.171875 -4.375 -0.578125 -5.296875 -1.75 -5.515625 L -1.75 -4.59375 C -0.984375 -4.34375 -0.6875 -3.828125 -0.6875 -3.09375 C -0.6875 -2.140625 -1.296875 -1.421875 -2.625 -1.390625 Z M -3.4375 -4.65625 C -3.4375 -4.65625 -3.390625 -4.65625 -3.359375 -4.65625 L -3.359375 -1.421875 C -4.390625 -1.5 -5.078125 -2.140625 -5.078125 -3.0625 C -5.078125 -3.96875 -4.328125 -4.65625 -3.4375 -4.65625 Z M -3.4375 -4.65625 "/>
</symbol>
<symbol overflow="visible" id="glyph2-3">
<path style="stroke:none;" d="M -2.828125 -5.75 C -4.765625 -5.75 -5.921875 -4.8125 -5.921875 -3.28125 C -5.921875 -2.5 -5.578125 -1.875 -4.890625 -1.4375 L -5.765625 -1.4375 L -5.765625 -0.609375 L 2.390625 -0.609375 L 2.390625 -1.515625 L -0.6875 -1.515625 C -0.09375 -2 0.171875 -2.546875 0.171875 -3.28125 C 0.171875 -4.78125 -0.984375 -5.75 -2.828125 -5.75 Z M -2.84375 -4.796875 C -1.546875 -4.796875 -0.6875 -4.125 -0.6875 -3.125 C -0.6875 -2.15625 -1.484375 -1.515625 -2.84375 -1.515625 C -4.1875 -1.515625 -5.078125 -2.15625 -5.078125 -3.125 C -5.078125 -4.140625 -4.21875 -4.796875 -2.84375 -4.796875 Z M -2.84375 -4.796875 "/>
</symbol>
<symbol overflow="visible" id="glyph2-4">
<path style="stroke:none;" d="M -0.015625 -5.890625 L -0.71875 -5.890625 C -0.6875 -5.78125 -0.6875 -5.734375 -0.6875 -5.6875 C -0.6875 -5.375 -0.859375 -5.1875 -1.140625 -5.1875 L -4.359375 -5.1875 C -5.375 -5.1875 -5.921875 -4.4375 -5.921875 -3.03125 C -5.921875 -1.625 -5.390625 -0.765625 -4.0625 -0.71875 L -4.0625 -1.640625 C -4.765625 -1.71875 -5.078125 -2.140625 -5.078125 -2.984375 C -5.078125 -3.8125 -4.78125 -4.28125 -4.21875 -4.28125 L -3.984375 -4.28125 C -3.59375 -4.28125 -3.4375 -4.046875 -3.34375 -3.328125 C -3.171875 -2.03125 -3.140625 -1.828125 -2.984375 -1.46875 C -2.71875 -0.796875 -2.203125 -0.46875 -1.5 -0.46875 C -0.453125 -0.46875 0.171875 -1.1875 0.171875 -2.359375 C 0.171875 -3.09375 -0.140625 -3.8125 -0.6875 -4.3125 C -0.234375 -4.40625 0.078125 -4.8125 0.078125 -5.265625 C 0.078125 -5.4375 0.0625 -5.59375 -0.015625 -5.890625 Z M -1.984375 -4.28125 C -1.171875 -4.28125 -0.640625 -3.4375 -0.640625 -2.546875 C -0.640625 -1.84375 -0.890625 -1.421875 -1.515625 -1.421875 C -2.125 -1.421875 -2.390625 -1.828125 -2.53125 -2.8125 C -2.65625 -3.765625 -2.703125 -3.96875 -2.84375 -4.28125 Z M -1.984375 -4.28125 "/>
</symbol>
<symbol overflow="visible" id="glyph2-5">
<path style="stroke:none;" d="M -4.96875 -3.53125 L -5.890625 -3.53125 C -5.921875 -3.375 -5.921875 -3.296875 -5.921875 -3.171875 C -5.921875 -2.578125 -5.578125 -2.140625 -4.71875 -1.609375 L -5.765625 -1.609375 L -5.765625 -0.765625 L 0 -0.765625 L 0 -1.6875 L -2.984375 -1.6875 C -4.296875 -1.6875 -4.9375 -2.109375 -4.96875 -3.53125 Z M -4.96875 -3.53125 "/>
</symbol>
<symbol overflow="visible" id="glyph2-6">
<path style="stroke:none;" d="M 0 -2.796875 L -0.765625 -2.796875 C -0.734375 -2.671875 -0.71875 -2.53125 -0.71875 -2.359375 C -0.71875 -1.953125 -0.84375 -1.84375 -1.25 -1.84375 L -5.015625 -1.84375 L -5.015625 -2.796875 L -5.765625 -2.796875 L -5.765625 -1.84375 L -7.34375 -1.84375 L -7.34375 -0.9375 L -5.765625 -0.9375 L -5.765625 -0.15625 L -5.015625 -0.15625 L -5.015625 -0.9375 L -0.84375 -0.9375 C -0.25 -0.9375 0.078125 -1.328125 0.078125 -2.046875 C 0.078125 -2.265625 0.0625 -2.484375 0 -2.796875 Z M 0 -2.796875 "/>
</symbol>
<symbol overflow="visible" id="glyph2-7">
<path style="stroke:none;" d="M 0 -8.359375 L -4.328125 -8.359375 C -5.359375 -8.359375 -5.921875 -7.78125 -5.921875 -6.703125 C -5.921875 -5.9375 -5.703125 -5.484375 -5.046875 -4.9375 C -5.671875 -4.59375 -5.921875 -4.140625 -5.921875 -3.390625 C -5.921875 -2.625 -5.640625 -2.109375 -4.953125 -1.609375 L -5.765625 -1.609375 L -5.765625 -0.78125 L 0 -0.78125 L 0 -1.6875 L -3.625 -1.6875 C -4.453125 -1.6875 -5.125 -2.296875 -5.125 -3.046875 C -5.125 -3.734375 -4.703125 -4.109375 -3.96875 -4.109375 L 0 -4.109375 L 0 -5.03125 L -3.625 -5.03125 C -4.453125 -5.03125 -5.125 -5.640625 -5.125 -6.390625 C -5.125 -7.0625 -4.703125 -7.453125 -3.96875 -7.453125 L 0 -7.453125 Z M 0 -8.359375 "/>
</symbol>
<symbol overflow="visible" id="glyph2-8">
<path style="stroke:none;" d="M 0 -5.359375 L -4.359375 -5.359375 C -5.3125 -5.359375 -5.921875 -4.640625 -5.921875 -3.53125 C -5.921875 -2.671875 -5.59375 -2.125 -4.796875 -1.609375 L -5.765625 -1.609375 L -5.765625 -0.765625 L 0 -0.765625 L 0 -1.6875 L -3.171875 -1.6875 C -4.359375 -1.6875 -5.125 -2.328125 -5.125 -3.25 C -5.125 -3.984375 -4.6875 -4.4375 -4 -4.4375 L 0 -4.4375 Z M 0 -5.359375 "/>
</symbol>
</g>
<clipPath id="clip1">
  <path d="M 116 5.480469 L 118 5.480469 L 118 325.851562 L 116 325.851562 Z M 116 5.480469 "/>
</clipPath>
<clipPath id="clip2">
  <path d="M 207 5.480469 L 209 5.480469 L 209 325.851562 L 207 325.851562 Z M 207 5.480469 "/>
</clipPath>
<clipPath id="clip3">
  <path d="M 298 5.480469 L 300 5.480469 L 300 325.851562 L 298 325.851562 Z M 298 5.480469 "/>
</clipPath>
<clipPath id="clip4">
  <path d="M 389 5.480469 L 391 5.480469 L 391 325.851562 L 389 325.851562 Z M 389 5.480469 "/>
</clipPath>
<clipPath id="clip5">
  <path d="M 481 5.480469 L 482 5.480469 L 482 325.851562 L 481 325.851562 Z M 481 5.480469 "/>
</clipPath>
<clipPath id="clip6">
  <path d="M 51.152344 309 L 498.523438 309 L 498.523438 311 L 51.152344 311 Z M 51.152344 309 "/>
</clipPath>
<clipPath id="clip7">
  <path d="M 51.152344 283 L 498.523438 283 L 498.523438 285 L 51.152344 285 Z M 51.152344 283 "/>
</clipPath>
<clipPath id="clip8">
  <path d="M 51.152344 257 L 498.523438 257 L 498.523438 259 L 51.152344 259 Z M 51.152344 257 "/>
</clipPath>
<clipPath id="clip9">
  <path d="M 51.152344 230 L 498.523438 230 L 498.523438 232 L 51.152344 232 Z M 51.152344 230 "/>
</clipPath>
<clipPath id="clip10">
  <path d="M 51.152344 204 L 498.523438 204 L 498.523438 206 L 51.152344 206 Z M 51.152344 204 "/>
</clipPath>
<clipPath id="clip11">
  <path d="M 51.152344 178 L 498.523438 178 L 498.523438 180 L 51.152344 180 Z M 51.152344 178 "/>
</clipPath>
<clipPath id="clip12">
  <path d="M 51.152344 152 L 498.523438 152 L 498.523438 154 L 51.152344 154 Z M 51.152344 152 "/>
</clipPath>
<clipPath id="clip13">
  <path d="M 51.152344 125 L 498.523438 125 L 498.523438 127 L 51.152344 127 Z M 51.152344 125 "/>
</clipPath>
<clipPath id="clip14">
  <path d="M 51.152344 99 L 498.523438 99 L 498.523438 101 L 51.152344 101 Z M 51.152344 99 "/>
</clipPath>
<clipPath id="clip15">
  <path d="M 51.152344 73 L 498.523438 73 L 498.523438 75 L 51.152344 75 Z M 51.152344 73 "/>
</clipPath>
<clipPath id="clip16">
  <path d="M 51.152344 46 L 498.523438 46 L 498.523438 49 L 51.152344 49 Z M 51.152344 46 "/>
</clipPath>
<clipPath id="clip17">
  <path d="M 51.152344 20 L 498.523438 20 L 498.523438 22 L 51.152344 22 Z M 51.152344 20 "/>
</clipPath>
<clipPath id="clip18">
  <path d="M 70 5.480469 L 73 5.480469 L 73 325.851562 L 70 325.851562 Z M 70 5.480469 "/>
</clipPath>
<clipPath id="clip19">
  <path d="M 162 5.480469 L 164 5.480469 L 164 325.851562 L 162 325.851562 Z M 162 5.480469 "/>
</clipPath>
<clipPath id="clip20">
  <path d="M 253 5.480469 L 255 5.480469 L 255 325.851562 L 253 325.851562 Z M 253 5.480469 "/>
</clipPath>
<clipPath id="clip21">
  <path d="M 344 5.480469 L 346 5.480469 L 346 325.851562 L 344 325.851562 Z M 344 5.480469 "/>
</clipPath>
<clipPath id="clip22">
  <path d="M 435 5.480469 L 437 5.480469 L 437 325.851562 L 435 325.851562 Z M 435 5.480469 "/>
</clipPath>
</defs>
<g id="surface47">
<rect x="0" y="0" width="504" height="360" style="fill:rgb(100%,100%,100%);fill-opacity:1;stroke:none;"/>
<g clip-path="url(#clip1)" clip-rule="nonzero">
<path style="fill:none;stroke-width:0.533489;stroke-linecap:butt;stroke-linejoin:round;stroke:rgb(92.156863%,92.156863%,92.156863%);stroke-opacity:1;stroke-miterlimit:10;" d="M 117.023438 325.847656 L 117.023438 5.480469 "/>
</g>
<g clip-path="url(#clip2)" clip-rule="nonzero">
<path style="fill:none;stroke-width:0.533489;stroke-linecap:butt;stroke-linejoin:round;stroke:rgb(92.156863%,92.156863%,92.156863%);stroke-opacity:1;stroke-miterlimit:10;" d="M 208.097656 325.847656 L 208.097656 5.480469 "/>
</g>
<g clip-path="url(#clip3)" clip-rule="nonzero">
<path style="fill:none;stroke-width:0.533489;stroke-linecap:butt;stroke-linejoin:round;stroke:rgb(92.156863%,92.156863%,92.156863%);stroke-opacity:1;stroke-miterlimit:10;" d="M 299.171875 325.847656 L 299.171875 5.480469 "/>
</g>
<g clip-path="url(#clip4)" clip-rule="nonzero">
<path style="fill:none;stroke-width:0.533489;stroke-linecap:butt;stroke-linejoin:round;stroke:rgb(92.156863%,92.156863%,92.156863%);stroke-opacity:1;stroke-miterlimit:10;" d="M 390.25 325.847656 L 390.25 5.480469 "/>
</g>
<g clip-path="url(#clip5)" clip-rule="nonzero">
<path style="fill:none;stroke-width:0.533489;stroke-linecap:butt;stroke-linejoin:round;stroke:rgb(92.156863%,92.156863%,92.156863%);stroke-opacity:1;stroke-miterlimit:10;" d="M 481.324219 325.847656 L 481.324219 5.480469 "/>
</g>
<g clip-path="url(#clip6)" clip-rule="nonzero">
<path style="fill:none;stroke-width:1.066978;stroke-linecap:butt;stroke-linejoin:round;stroke:rgb(92.156863%,92.156863%,92.156863%);stroke-opacity:1;stroke-miterlimit:10;" d="M 51.152344 310.09375 L 498.519531 310.09375 "/>
</g>
<g clip-path="url(#clip7)" clip-rule="nonzero">
<path style="fill:none;stroke-width:1.066978;stroke-linecap:butt;stroke-linejoin:round;stroke:rgb(92.156863%,92.156863%,92.156863%);stroke-opacity:1;stroke-miterlimit:10;" d="M 51.152344 283.832031 L 498.519531 283.832031 "/>
</g>
<g clip-path="url(#clip8)" clip-rule="nonzero">
<path style="fill:none;stroke-width:1.066978;stroke-linecap:butt;stroke-linejoin:round;stroke:rgb(92.156863%,92.156863%,92.156863%);stroke-opacity:1;stroke-miterlimit:10;" d="M 51.152344 257.574219 L 498.519531 257.574219 "/>
</g>
<g clip-path="url(#clip9)" clip-rule="nonzero">
<path style="fill:none;stroke-width:1.066978;stroke-linecap:butt;stroke-linejoin:round;stroke:rgb(92.156863%,92.156863%,92.156863%);stroke-opacity:1;stroke-miterlimit:10;" d="M 51.152344 231.3125 L 498.519531 231.3125 "/>
</g>
<g clip-path="url(#clip10)" clip-rule="nonzero">
<path style="fill:none;stroke-width:1.066978;stroke-linecap:butt;stroke-linejoin:round;stroke:rgb(92.156863%,92.156863%,92.156863%);stroke-opacity:1;stroke-miterlimit:10;" d="M 51.152344 205.054688 L 498.519531 205.054688 "/>
</g>
<g clip-path="url(#clip11)" clip-rule="nonzero">
<path style="fill:none;stroke-width:1.066978;stroke-linecap:butt;stroke-linejoin:round;stroke:rgb(92.156863%,92.156863%,92.156863%);stroke-opacity:1;stroke-miterlimit:10;" d="M 51.152344 178.792969 L 498.519531 178.792969 "/>
</g>
<g clip-path="url(#clip12)" clip-rule="nonzero">
<path style="fill:none;stroke-width:1.066978;stroke-linecap:butt;stroke-linejoin:round;stroke:rgb(92.156863%,92.156863%,92.156863%);stroke-opacity:1;stroke-miterlimit:10;" d="M 51.152344 152.535156 L 498.519531 152.535156 "/>
</g>
<g clip-path="url(#clip13)" clip-rule="nonzero">
<path style="fill:none;stroke-width:1.066978;stroke-linecap:butt;stroke-linejoin:round;stroke:rgb(92.156863%,92.156863%,92.156863%);stroke-opacity:1;stroke-miterlimit:10;" d="M 51.152344 126.273438 L 498.519531 126.273438 "/>
</g>
<g clip-path="url(#clip14)" clip-rule="nonzero">
<path style="fill:none;stroke-width:1.066978;stroke-linecap:butt;stroke-linejoin:round;stroke:rgb(92.156863%,92.156863%,92.156863%);stroke-opacity:1;stroke-miterlimit:10;" d="M 51.152344 100.015625 L 498.519531 100.015625 "/>
</g>
<g clip-path="url(#clip15)" clip-rule="nonzero">
<path style="fill:none;stroke-width:1.066978;stroke-linecap:butt;stroke-linejoin:round;stroke:rgb(92.156863%,92.156863%,92.156863%);stroke-opacity:1;stroke-miterlimit:10;" d="M 51.152344 73.753906 L 498.519531 73.753906 "/>
</g>
<g clip-path="url(#clip16)" clip-rule="nonzero">
<path style="fill:none;stroke-width:1.066978;stroke-linecap:butt;stroke-linejoin:round;stroke:rgb(92.156863%,92.156863%,92.156863%);stroke-opacity:1;stroke-miterlimit:10;" d="M 51.152344 47.496094 L 498.519531 47.496094 "/>
</g>
<g clip-path="url(#clip17)" clip-rule="nonzero">
<path style="fill:none;stroke-width:1.066978;stroke-linecap:butt;stroke-linejoin:round;stroke:rgb(92.156863%,92.156863%,92.156863%);stroke-opacity:1;stroke-miterlimit:10;" d="M 51.152344 21.234375 L 498.519531 21.234375 "/>
</g>
<g clip-path="url(#clip18)" clip-rule="nonzero">
<path style="fill:none;stroke-width:1.066978;stroke-linecap:butt;stroke-linejoin:round;stroke:rgb(92.156863%,92.156863%,92.156863%);stroke-opacity:1;stroke-miterlimit:10;" d="M 71.484375 325.847656 L 71.484375 5.480469 "/>
</g>
<g clip-path="url(#clip19)" clip-rule="nonzero">
<path style="fill:none;stroke-width:1.066978;stroke-linecap:butt;stroke-linejoin:round;stroke:rgb(92.156863%,92.156863%,92.156863%);stroke-opacity:1;stroke-miterlimit:10;" d="M 162.5625 325.847656 L 162.5625 5.480469 "/>
</g>
<g clip-path="url(#clip20)" clip-rule="nonzero">
<path style="fill:none;stroke-width:1.066978;stroke-linecap:butt;stroke-linejoin:round;stroke:rgb(92.156863%,92.156863%,92.156863%);stroke-opacity:1;stroke-miterlimit:10;" d="M 253.636719 325.847656 L 253.636719 5.480469 "/>
</g>
<g clip-path="url(#clip21)" clip-rule="nonzero">
<path style="fill:none;stroke-width:1.066978;stroke-linecap:butt;stroke-linejoin:round;stroke:rgb(92.156863%,92.156863%,92.156863%);stroke-opacity:1;stroke-miterlimit:10;" d="M 344.710938 325.847656 L 344.710938 5.480469 "/>
</g>
<g clip-path="url(#clip22)" clip-rule="nonzero">
<path style="fill:none;stroke-width:1.066978;stroke-linecap:butt;stroke-linejoin:round;stroke:rgb(92.156863%,92.156863%,92.156863%);stroke-opacity:1;stroke-miterlimit:10;" d="M 435.785156 325.847656 L 435.785156 5.480469 "/>
</g>
<path style=" stroke:none;fill-rule:nonzero;fill:rgb(85.098039%,37.254902%,0.784314%);fill-opacity:1;" d="M 71.484375 310.09375 L 111.507812 310.09375 L 111.507812 298.277344 L 71.484375 298.277344 Z M 71.484375 310.09375 "/>
<path style=" stroke:none;fill-rule:nonzero;fill:rgb(10.588235%,61.960784%,46.666667%);fill-opacity:1;" d="M 71.484375 321.910156 L 89.058594 321.910156 L 89.058594 310.09375 L 71.484375 310.09375 Z M 71.484375 321.910156 "/>
<path style=" stroke:none;fill-rule:nonzero;fill:rgb(85.098039%,37.254902%,0.784314%);fill-opacity:1;" d="M 71.484375 283.832031 L 81.410156 283.832031 L 81.410156 272.015625 L 71.484375 272.015625 Z M 71.484375 283.832031 "/>
<path style=" stroke:none;fill-rule:nonzero;fill:rgb(10.588235%,61.960784%,46.666667%);fill-opacity:1;" d="M 71.484375 295.652344 L 151.414062 295.652344 L 151.414062 283.835938 L 71.484375 283.835938 Z M 71.484375 295.652344 "/>
<path style=" stroke:none;fill-rule:nonzero;fill:rgb(85.098039%,37.254902%,0.784314%);fill-opacity:1;" d="M 71.484375 257.574219 L 105.132812 257.574219 L 105.132812 245.757812 L 71.484375 245.757812 Z M 71.484375 257.574219 "/>
<path style=" stroke:none;fill-rule:nonzero;fill:rgb(10.588235%,61.960784%,46.666667%);fill-opacity:1;" d="M 71.484375 269.390625 L 131.871094 269.390625 L 131.871094 257.574219 L 71.484375 257.574219 Z M 71.484375 269.390625 "/>
<path style=" stroke:none;fill-rule:nonzero;fill:rgb(85.098039%,37.254902%,0.784314%);fill-opacity:1;" d="M 71.484375 231.3125 L 135.324219 231.3125 L 135.324219 219.496094 L 71.484375 219.496094 Z M 71.484375 231.3125 "/>
<path style=" stroke:none;fill-rule:nonzero;fill:rgb(10.588235%,61.960784%,46.666667%);fill-opacity:1;" d="M 71.484375 243.132812 L 120.609375 243.132812 L 120.609375 231.316406 L 71.484375 231.316406 Z M 71.484375 243.132812 "/>
<path style=" stroke:none;fill-rule:nonzero;fill:rgb(85.098039%,37.254902%,0.784314%);fill-opacity:1;" d="M 71.484375 205.054688 L 88.109375 205.054688 L 88.109375 193.238281 L 71.484375 193.238281 Z M 71.484375 205.054688 "/>
<path style=" stroke:none;fill-rule:nonzero;fill:rgb(10.588235%,61.960784%,46.666667%);fill-opacity:1;" d="M 71.484375 216.871094 L 175.160156 216.871094 L 175.160156 205.054688 L 71.484375 205.054688 Z M 71.484375 216.871094 "/>
<path style=" stroke:none;fill-rule:nonzero;fill:rgb(85.098039%,37.254902%,0.784314%);fill-opacity:1;" d="M 71.484375 178.792969 L 138.792969 178.792969 L 138.792969 166.976562 L 71.484375 166.976562 Z M 71.484375 178.792969 "/>
<path style=" stroke:none;fill-rule:nonzero;fill:rgb(10.588235%,61.960784%,46.666667%);fill-opacity:1;" d="M 71.484375 190.609375 L 147.175781 190.609375 L 147.175781 178.792969 L 71.484375 178.792969 Z M 71.484375 190.609375 "/>
<path style=" stroke:none;fill-rule:nonzero;fill:rgb(85.098039%,37.254902%,0.784314%);fill-opacity:1;" d="M 71.484375 152.535156 L 123.21875 152.535156 L 123.21875 140.71875 L 71.484375 140.71875 Z M 71.484375 152.535156 "/>
<path style=" stroke:none;fill-rule:nonzero;fill:rgb(10.588235%,61.960784%,46.666667%);fill-opacity:1;" d="M 71.484375 164.351562 L 187.027344 164.351562 L 187.027344 152.535156 L 71.484375 152.535156 Z M 71.484375 164.351562 "/>
<path style=" stroke:none;fill-rule:nonzero;fill:rgb(85.098039%,37.254902%,0.784314%);fill-opacity:1;" d="M 71.484375 126.273438 L 168.230469 126.273438 L 168.230469 114.457031 L 71.484375 114.457031 Z M 71.484375 126.273438 "/>
<path style=" stroke:none;fill-rule:nonzero;fill:rgb(10.588235%,61.960784%,46.666667%);fill-opacity:1;" d="M 71.484375 138.089844 L 201.972656 138.089844 L 201.972656 126.273438 L 71.484375 126.273438 Z M 71.484375 138.089844 "/>
<path style=" stroke:none;fill-rule:nonzero;fill:rgb(85.098039%,37.254902%,0.784314%);fill-opacity:1;" d="M 71.484375 100.015625 L 97.21875 100.015625 L 97.21875 88.199219 L 71.484375 88.199219 Z M 71.484375 100.015625 "/>
<path style=" stroke:none;fill-rule:nonzero;fill:rgb(10.588235%,61.960784%,46.666667%);fill-opacity:1;" d="M 71.484375 111.832031 L 281.183594 111.832031 L 281.183594 100.015625 L 71.484375 100.015625 Z M 71.484375 111.832031 "/>
<path style=" stroke:none;fill-rule:nonzero;fill:rgb(85.098039%,37.254902%,0.784314%);fill-opacity:1;" d="M 71.484375 73.753906 L 89.664062 73.753906 L 89.664062 61.9375 L 71.484375 61.9375 Z M 71.484375 73.753906 "/>
<path style=" stroke:none;fill-rule:nonzero;fill:rgb(10.588235%,61.960784%,46.666667%);fill-opacity:1;" d="M 71.484375 85.570312 L 293.234375 85.570312 L 293.234375 73.753906 L 71.484375 73.753906 Z M 71.484375 85.570312 "/>
<path style=" stroke:none;fill-rule:nonzero;fill:rgb(85.098039%,37.254902%,0.784314%);fill-opacity:1;" d="M 71.484375 47.496094 L 271.339844 47.496094 L 271.339844 35.679688 L 71.484375 35.679688 Z M 71.484375 47.496094 "/>
<path style=" stroke:none;fill-rule:nonzero;fill:rgb(10.588235%,61.960784%,46.666667%);fill-opacity:1;" d="M 71.484375 59.3125 L 222.621094 59.3125 L 222.621094 47.496094 L 71.484375 47.496094 Z M 71.484375 59.3125 "/>
<path style=" stroke:none;fill-rule:nonzero;fill:rgb(85.098039%,37.254902%,0.784314%);fill-opacity:1;" d="M 71.484375 21.234375 L 81.214844 21.234375 L 81.214844 9.417969 L 71.484375 9.417969 Z M 71.484375 21.234375 "/>
<path style=" stroke:none;fill-rule:nonzero;fill:rgb(10.588235%,61.960784%,46.666667%);fill-opacity:1;" d="M 71.484375 33.050781 L 478.183594 33.050781 L 478.183594 21.234375 L 71.484375 21.234375 Z M 71.484375 33.050781 "/>
<g style="fill:rgb(30.196078%,30.196078%,30.196078%);fill-opacity:1;">
  <use xlink:href="#glyph0-1" x="21.21875" y="312.696289"/>
  <use xlink:href="#glyph0-2" x="27.087891" y="312.696289"/>
  <use xlink:href="#glyph0-3" x="32.957031" y="312.696289"/>
  <use xlink:href="#glyph0-4" x="39.310547" y="312.696289"/>
</g>
<g style="fill:rgb(30.196078%,30.196078%,30.196078%);fill-opacity:1;">
  <use xlink:href="#glyph0-5" x="22.21875" y="286.43457"/>
  <use xlink:href="#glyph0-6" x="28.572266" y="286.43457"/>
  <use xlink:href="#glyph0-7" x="34.925781" y="286.43457"/>
  <use xlink:href="#glyph0-6" x="39.818359" y="286.43457"/>
</g>
<g style="fill:rgb(30.196078%,30.196078%,30.196078%);fill-opacity:1;">
  <use xlink:href="#glyph0-4" x="35.21875" y="260.176758"/>
  <use xlink:href="#glyph0-8" x="41.572266" y="260.176758"/>
</g>
<g style="fill:rgb(30.196078%,30.196078%,30.196078%);fill-opacity:1;">
  <use xlink:href="#glyph0-1" x="32.21875" y="233.915039"/>
  <use xlink:href="#glyph0-9" x="37.824219" y="233.915039"/>
</g>
<g style="fill:rgb(30.196078%,30.196078%,30.196078%);fill-opacity:1;">
  <use xlink:href="#glyph0-1" x="26.21875" y="207.657227"/>
  <use xlink:href="#glyph0-10" x="32.087891" y="207.657227"/>
  <use xlink:href="#glyph0-4" x="38.93457" y="207.657227"/>
</g>
<g style="fill:rgb(30.196078%,30.196078%,30.196078%);fill-opacity:1;">
  <use xlink:href="#glyph0-11" x="26.21875" y="181.395508"/>
  <use xlink:href="#glyph0-12" x="33.06543" y="181.395508"/>
  <use xlink:href="#glyph0-10" x="38.93457" y="181.395508"/>
</g>
<g style="fill:rgb(30.196078%,30.196078%,30.196078%);fill-opacity:1;">
  <use xlink:href="#glyph0-13" x="27.21875" y="155.137695"/>
  <use xlink:href="#glyph0-14" x="33.087891" y="155.137695"/>
  <use xlink:href="#glyph0-2" x="39.441406" y="155.137695"/>
</g>
<g style="fill:rgb(30.196078%,30.196078%,30.196078%);fill-opacity:1;">
  <use xlink:href="#glyph0-5" x="28.21875" y="128.875977"/>
  <use xlink:href="#glyph0-1" x="34.572266" y="128.875977"/>
  <use xlink:href="#glyph0-15" x="40.177734" y="128.875977"/>
</g>
<g style="fill:rgb(30.196078%,30.196078%,30.196078%);fill-opacity:1;">
  <use xlink:href="#glyph0-12" x="20.21875" y="102.618164"/>
  <use xlink:href="#glyph0-4" x="26.087891" y="102.618164"/>
  <use xlink:href="#glyph0-10" x="32.353516" y="102.618164"/>
  <use xlink:href="#glyph0-14" x="39.200195" y="102.618164"/>
</g>
<g style="fill:rgb(30.196078%,30.196078%,30.196078%);fill-opacity:1;">
  <use xlink:href="#glyph0-5" x="22.21875" y="76.356445"/>
  <use xlink:href="#glyph0-3" x="28.572266" y="76.356445"/>
  <use xlink:href="#glyph0-16" x="34.925781" y="76.356445"/>
  <use xlink:href="#glyph0-1" x="40.302734" y="76.356445"/>
</g>
<g style="fill:rgb(30.196078%,30.196078%,30.196078%);fill-opacity:1;">
  <use xlink:href="#glyph0-2" x="29.21875" y="50.098633"/>
  <use xlink:href="#glyph0-7" x="35.087891" y="50.098633"/>
  <use xlink:href="#glyph0-1" x="39.804688" y="50.098633"/>
</g>
<g style="fill:rgb(30.196078%,30.196078%,30.196078%);fill-opacity:1;">
  <use xlink:href="#glyph0-2" x="28.21875" y="23.836914"/>
  <use xlink:href="#glyph0-1" x="34.087891" y="23.836914"/>
  <use xlink:href="#glyph0-17" x="39.517578" y="23.836914"/>
</g>
<g style="fill:rgb(30.196078%,30.196078%,30.196078%);fill-opacity:1;">
  <use xlink:href="#glyph0-18" x="68.984375" y="336.883789"/>
</g>
<g style="fill:rgb(30.196078%,30.196078%,30.196078%);fill-opacity:1;">
  <use xlink:href="#glyph0-19" x="147.5625" y="336.883789"/>
  <use xlink:href="#glyph0-18" x="152.455078" y="336.883789"/>
  <use xlink:href="#glyph0-18" x="157.347656" y="336.883789"/>
  <use xlink:href="#glyph0-18" x="162.240234" y="336.883789"/>
  <use xlink:href="#glyph0-18" x="167.132812" y="336.883789"/>
  <use xlink:href="#glyph0-18" x="172.025391" y="336.883789"/>
</g>
<g style="fill:rgb(30.196078%,30.196078%,30.196078%);fill-opacity:1;">
  <use xlink:href="#glyph0-20" x="236.136719" y="336.883789"/>
  <use xlink:href="#glyph0-18" x="241.029297" y="336.883789"/>
  <use xlink:href="#glyph0-18" x="245.921875" y="336.883789"/>
  <use xlink:href="#glyph0-18" x="250.814453" y="336.883789"/>
  <use xlink:href="#glyph0-18" x="255.707031" y="336.883789"/>
  <use xlink:href="#glyph0-18" x="260.599609" y="336.883789"/>
  <use xlink:href="#glyph0-18" x="265.492188" y="336.883789"/>
</g>
<g style="fill:rgb(30.196078%,30.196078%,30.196078%);fill-opacity:1;">
  <use xlink:href="#glyph0-20" x="327.210938" y="336.883789"/>
  <use xlink:href="#glyph0-19" x="332.103516" y="336.883789"/>
  <use xlink:href="#glyph0-18" x="336.996094" y="336.883789"/>
  <use xlink:href="#glyph0-18" x="341.888672" y="336.883789"/>
  <use xlink:href="#glyph0-18" x="346.78125" y="336.883789"/>
  <use xlink:href="#glyph0-18" x="351.673828" y="336.883789"/>
  <use xlink:href="#glyph0-18" x="356.566406" y="336.883789"/>
</g>
<g style="fill:rgb(30.196078%,30.196078%,30.196078%);fill-opacity:1;">
  <use xlink:href="#glyph0-21" x="418.285156" y="336.883789"/>
  <use xlink:href="#glyph0-18" x="423.177734" y="336.883789"/>
  <use xlink:href="#glyph0-18" x="428.070312" y="336.883789"/>
  <use xlink:href="#glyph0-18" x="432.962891" y="336.883789"/>
  <use xlink:href="#glyph0-18" x="437.855469" y="336.883789"/>
  <use xlink:href="#glyph0-18" x="442.748047" y="336.883789"/>
  <use xlink:href="#glyph0-18" x="447.640625" y="336.883789"/>
</g>
<g style="fill:rgb(0%,0%,0%);fill-opacity:1;">
  <use xlink:href="#glyph1-1" x="252.835938" y="351.147461"/>
  <use xlink:href="#glyph1-2" x="260.667969" y="351.147461"/>
  <use xlink:href="#glyph1-3" x="266.619141" y="351.147461"/>
  <use xlink:href="#glyph1-2" x="271.899414" y="351.147461"/>
  <use xlink:href="#glyph1-4" x="278.015625" y="351.147461"/>
  <use xlink:href="#glyph1-5" x="284.131836" y="351.147461"/>
  <use xlink:href="#glyph1-2" x="290.248047" y="351.147461"/>
</g>
<g style="fill:rgb(0%,0%,0%);fill-opacity:1;">
  <use xlink:href="#glyph2-1" x="14.108398" y="194.664062"/>
  <use xlink:href="#glyph2-2" x="14.108398" y="186.72168"/>
  <use xlink:href="#glyph2-3" x="14.108398" y="180.605469"/>
  <use xlink:href="#glyph2-4" x="14.108398" y="174.489258"/>
  <use xlink:href="#glyph2-5" x="14.108398" y="168.373047"/>
  <use xlink:href="#glyph2-6" x="14.108398" y="164.379883"/>
  <use xlink:href="#glyph2-7" x="14.108398" y="161.322266"/>
  <use xlink:href="#glyph2-2" x="14.108398" y="152.15918"/>
  <use xlink:href="#glyph2-8" x="14.108398" y="146.042969"/>
  <use xlink:href="#glyph2-6" x="14.108398" y="139.926758"/>
</g>
<g style="fill:rgb(0%,0%,0%);fill-opacity:1;">
  <use xlink:href="#glyph1-6" x="336.929688" y="245.881836"/>
  <use xlink:href="#glyph1-7" x="342.550781" y="245.881836"/>
  <use xlink:href="#glyph1-8" x="348.050781" y="245.881836"/>
  <use xlink:href="#glyph1-2" x="354.166992" y="245.881836"/>
</g>
<path style=" stroke:none;fill-rule:nonzero;fill:rgb(10.588235%,61.960784%,46.666667%);fill-opacity:1;" d="M 337.636719 269.804688 L 353.5 269.804688 L 353.5 253.941406 L 337.636719 253.941406 Z M 337.636719 269.804688 "/>
<path style=" stroke:none;fill-rule:nonzero;fill:rgb(85.098039%,37.254902%,0.784314%);fill-opacity:1;" d="M 337.636719 287.085938 L 353.5 287.085938 L 353.5 271.222656 L 337.636719 271.222656 Z M 337.636719 287.085938 "/>
<g style="fill:rgb(0%,0%,0%);fill-opacity:1;">
  <use xlink:href="#glyph0-22" x="359.6875" y="264.477539"/>
  <use xlink:href="#glyph0-23" x="362.133789" y="264.477539"/>
  <use xlink:href="#glyph0-24" x="367.026367" y="264.477539"/>
  <use xlink:href="#glyph0-25" x="369.472656" y="264.477539"/>
  <use xlink:href="#glyph0-26" x="376.802734" y="264.477539"/>
  <use xlink:href="#glyph0-27" x="381.695312" y="264.477539"/>
  <use xlink:href="#glyph0-28" x="383.648438" y="264.477539"/>
  <use xlink:href="#glyph0-29" x="388.541016" y="264.477539"/>
</g>
<g style="fill:rgb(0%,0%,0%);fill-opacity:1;">
  <use xlink:href="#glyph0-22" x="359.6875" y="281.758789"/>
  <use xlink:href="#glyph0-1" x="362.133789" y="281.758789"/>
  <use xlink:href="#glyph0-1" x="368.00293" y="281.758789"/>
</g>
</g>
</svg>
